
**** Build of configuration FlashROM_StackLibrary for project ble5_project_zero_cc2640r2lp_app ****

/home/lemu-software-02/ti/ccs1020/ccs/utils/bin/gmake -k -j 12 all -O 
 
Building file: "../Application/TaskMail.c"
Invoking: Arm Compiler
"/home/lemu-software-02/ti/ccs1020/ccs/tools/compiler/ti-cgt-arm_20.2.2.LTS/bin/armcl" --cmd_file="/home/lemu-software-02/magic/lm_blesdk5/ble5_project_zero_cc2640r2lp_app/TOOLS/defines/ble5_project_zero_cc2640r2lp_app_FlashROM_StackLibrary.opt" --cmd_file="/home/lemu-software-02/ti/simplelink_cc2640r2_sdk_5_10_00_02/source/ti/ble5stack/config/build_components.opt" --cmd_file="/home/lemu-software-02/ti/simplelink_cc2640r2_sdk_5_10_00_02/source/ti/ble5stack/config/factory_config.opt" --cmd_file="/home/lemu-software-02/magic/lm_blesdk5/ble5_project_zero_cc2640r2lp_stack_library/TOOLS/build_config.opt"  -mv7M4 --code_state=16 -me -O2 --opt_for_speed=0 --include_path="/home/lemu-software-02/ti/xdctools_3_51_03_28_core/packages/xdc" --include_path="/home/lemu-software-02/ti/simplelink_cc2640r2_sdk_5_10_00_02/kernel/tirtos/packages/ti/sysbios/hal/package" --include_path="/home/lemu-software-02/ti/simplelink_cc2640r2_sdk_5_10_00_02/source/ti/boards" --include_path="/home/lemu-software-02/ti/simplelink_cc2640r2_sdk_5_10_00_02" --include_path="/home/lemu-software-02/magic/lm_blesdk5/ble5_project_zero_cc2640r2lp_app" --include_path="/home/lemu-software-02/magic/lm_blesdk5/ble5_project_zero_cc2640r2lp_app/Application" --include_path="/home/lemu-software-02/magic/lm_blesdk5/ble5_project_zero_cc2640r2lp_app/Startup" --include_path="/home/lemu-software-02/magic/lm_blesdk5/ble5_project_zero_cc2640r2lp_app/PROFILES" --include_path="/home/lemu-software-02/magic/lm_blesdk5/ble5_project_zero_cc2640r2lp_app/Include" --include_path="/home/lemu-software-02/ti/simplelink_cc2640r2_sdk_5_10_00_02/examples/rtos/CC2640R2_LAUNCHXL/ble5stack/project_zero/src/extra" --include_path="/home/lemu-software-02/ti/simplelink_cc2640r2_sdk_5_10_00_02/source/ti/ble5stack/controller/cc26xx/inc" --include_path="/home/lemu-software-02/ti/simplelink_cc2640r2_sdk_5_10_00_02/source/ti/ble5stack/inc" --include_path="/home/lemu-software-02/ti/simplelink_cc2640r2_sdk_5_10_00_02/source/ti/ble5stack/rom" --include_path="/home/lemu-software-02/ti/simplelink_cc2640r2_sdk_5_10_00_02/source/ti/ble5stack/common/cc26xx" --include_path="/home/lemu-software-02/ti/simplelink_cc2640r2_sdk_5_10_00_02/source/ti/ble5stack/icall/inc" --include_path="/home/lemu-software-02/ti/simplelink_cc2640r2_sdk_5_10_00_02/source/ti/ble5stack/target" --include_path="/home/lemu-software-02/ti/simplelink_cc2640r2_sdk_5_10_00_02/source/ti/ble5stack/hal/src/target/_common" --include_path="/home/lemu-software-02/ti/simplelink_cc2640r2_sdk_5_10_00_02/source/ti/ble5stack/hal/src/target/_common/cc26xx" --include_path="/home/lemu-software-02/ti/simplelink_cc2640r2_sdk_5_10_00_02/source/ti/ble5stack/hal/src/inc" --include_path="/home/lemu-software-02/ti/simplelink_cc2640r2_sdk_5_10_00_02/source/ti/ble5stack/heapmgr" --include_path="/home/lemu-software-02/ti/simplelink_cc2640r2_sdk_5_10_00_02/source/ti/ble5stack/icall/src/inc" --include_path="/home/lemu-software-02/ti/simplelink_cc2640r2_sdk_5_10_00_02/source/ti/ble5stack/osal/src/inc" --include_path="/home/lemu-software-02/ti/simplelink_cc2640r2_sdk_5_10_00_02/source/ti/ble5stack/services/src/saddr" --include_path="/home/lemu-software-02/ti/simplelink_cc2640r2_sdk_5_10_00_02/source/ti/ble5stack/services/src/sdata" --include_path="/home/lemu-software-02/ti/simplelink_cc2640r2_sdk_5_10_00_02/source/ti/devices/cc26x0r2" --include_path="/home/lemu-software-02/ti/ccs1020/ccs/tools/compiler/ti-cgt-arm_20.2.2.LTS/include" --define=DeviceFamily_CC26X0R2 --define=uartlog_FILE="\"TaskMail.c\"" --define=UARTLOG_ENABLE -g --c99 --gcc --diag_warning=225 --diag_wrap=off --display_error_number --gen_func_subsections=on --abi=eabi --preproc_with_compile --preproc_dependency="Application/TaskMail.d_raw" --obj_directory="Application" --cmd_file="configPkg/compiler.opt"  "../Application/TaskMail.c"
"/home/lemu-software-02/ti/simplelink_cc2640r2_sdk_5_10_00_02/source/ti/ble5stack/target/./cc2640r2em/../../boards/CC2640R2DK_4XS/CC2640R2DK_4XS.h", line 298: warning #1-D: last line of file ends without a newline
"/home/lemu-software-02/ti/simplelink_cc2640r2_sdk_5_10_00_02/source/ti/ble5stack/target/./cc2640r2em/../../boards/CC2640R2DK_4XS/Board.h", line 137: warning #1-D: last line of file ends without a newline
"/home/lemu-software-02/ti/simplelink_cc2640r2_sdk_5_10_00_02/source/ti/ble5stack/target/./cc2640r2em/../../boards/CC2640R2DK_4XS/CC2640R2DK_4XS.h", line 298: warning #1-D: last line of file ends without a newline
"/home/lemu-software-02/ti/simplelink_cc2640r2_sdk_5_10_00_02/source/ti/ble5stack/target/./cc2640r2em/../../boards/CC2640R2DK_4XS/Board.h", line 137: warning #1-D: last line of file ends without a newline
Finished building: "../Application/TaskMail.c"
 
Building file: "../Application/Driver.c"
Invoking: Arm Compiler
"/home/lemu-software-02/ti/ccs1020/ccs/tools/compiler/ti-cgt-arm_20.2.2.LTS/bin/armcl" --cmd_file="/home/lemu-software-02/magic/lm_blesdk5/ble5_project_zero_cc2640r2lp_app/TOOLS/defines/ble5_project_zero_cc2640r2lp_app_FlashROM_StackLibrary.opt" --cmd_file="/home/lemu-software-02/ti/simplelink_cc2640r2_sdk_5_10_00_02/source/ti/ble5stack/config/build_components.opt" --cmd_file="/home/lemu-software-02/ti/simplelink_cc2640r2_sdk_5_10_00_02/source/ti/ble5stack/config/factory_config.opt" --cmd_file="/home/lemu-software-02/magic/lm_blesdk5/ble5_project_zero_cc2640r2lp_stack_library/TOOLS/build_config.opt"  -mv7M4 --code_state=16 -me -O2 --opt_for_speed=0 --include_path="/home/lemu-software-02/ti/xdctools_3_51_03_28_core/packages/xdc" --include_path="/home/lemu-software-02/ti/simplelink_cc2640r2_sdk_5_10_00_02/kernel/tirtos/packages/ti/sysbios/hal/package" --include_path="/home/lemu-software-02/ti/simplelink_cc2640r2_sdk_5_10_00_02/source/ti/boards" --include_path="/home/lemu-software-02/ti/simplelink_cc2640r2_sdk_5_10_00_02" --include_path="/home/lemu-software-02/magic/lm_blesdk5/ble5_project_zero_cc2640r2lp_app" --include_path="/home/lemu-software-02/magic/lm_blesdk5/ble5_project_zero_cc2640r2lp_app/Application" --include_path="/home/lemu-software-02/magic/lm_blesdk5/ble5_project_zero_cc2640r2lp_app/Startup" --include_path="/home/lemu-software-02/magic/lm_blesdk5/ble5_project_zero_cc2640r2lp_app/PROFILES" --include_path="/home/lemu-software-02/magic/lm_blesdk5/ble5_project_zero_cc2640r2lp_app/Include" --include_path="/home/lemu-software-02/ti/simplelink_cc2640r2_sdk_5_10_00_02/examples/rtos/CC2640R2_LAUNCHXL/ble5stack/project_zero/src/extra" --include_path="/home/lemu-software-02/ti/simplelink_cc2640r2_sdk_5_10_00_02/source/ti/ble5stack/controller/cc26xx/inc" --include_path="/home/lemu-software-02/ti/simplelink_cc2640r2_sdk_5_10_00_02/source/ti/ble5stack/inc" --include_path="/home/lemu-software-02/ti/simplelink_cc2640r2_sdk_5_10_00_02/source/ti/ble5stack/rom" --include_path="/home/lemu-software-02/ti/simplelink_cc2640r2_sdk_5_10_00_02/source/ti/ble5stack/common/cc26xx" --include_path="/home/lemu-software-02/ti/simplelink_cc2640r2_sdk_5_10_00_02/source/ti/ble5stack/icall/inc" --include_path="/home/lemu-software-02/ti/simplelink_cc2640r2_sdk_5_10_00_02/source/ti/ble5stack/target" --include_path="/home/lemu-software-02/ti/simplelink_cc2640r2_sdk_5_10_00_02/source/ti/ble5stack/hal/src/target/_common" --include_path="/home/lemu-software-02/ti/simplelink_cc2640r2_sdk_5_10_00_02/source/ti/ble5stack/hal/src/target/_common/cc26xx" --include_path="/home/lemu-software-02/ti/simplelink_cc2640r2_sdk_5_10_00_02/source/ti/ble5stack/hal/src/inc" --include_path="/home/lemu-software-02/ti/simplelink_cc2640r2_sdk_5_10_00_02/source/ti/ble5stack/heapmgr" --include_path="/home/lemu-software-02/ti/simplelink_cc2640r2_sdk_5_10_00_02/source/ti/ble5stack/icall/src/inc" --include_path="/home/lemu-software-02/ti/simplelink_cc2640r2_sdk_5_10_00_02/source/ti/ble5stack/osal/src/inc" --include_path="/home/lemu-software-02/ti/simplelink_cc2640r2_sdk_5_10_00_02/source/ti/ble5stack/services/src/saddr" --include_path="/home/lemu-software-02/ti/simplelink_cc2640r2_sdk_5_10_00_02/source/ti/ble5stack/services/src/sdata" --include_path="/home/lemu-software-02/ti/simplelink_cc2640r2_sdk_5_10_00_02/source/ti/devices/cc26x0r2" --include_path="/home/lemu-software-02/ti/ccs1020/ccs/tools/compiler/ti-cgt-arm_20.2.2.LTS/include" --define=DeviceFamily_CC26X0R2 --define=uartlog_FILE="\"Driver.c\"" --define=UARTLOG_ENABLE -g --c99 --gcc --diag_warning=225 --diag_wrap=off --display_error_number --gen_func_subsections=on --abi=eabi --preproc_with_compile --preproc_dependency="Application/Driver.d_raw" --obj_directory="Application" --cmd_file="configPkg/compiler.opt"  "../Application/Driver.c"
"/home/lemu-software-02/ti/simplelink_cc2640r2_sdk_5_10_00_02/source/ti/ble5stack/target/./cc2640r2em/../../boards/CC2640R2DK_4XS/CC2640R2DK_4XS.h", line 298: warning #1-D: last line of file ends without a newline
"/home/lemu-software-02/ti/simplelink_cc2640r2_sdk_5_10_00_02/source/ti/ble5stack/target/./cc2640r2em/../../boards/CC2640R2DK_4XS/Board.h", line 137: warning #1-D: last line of file ends without a newline
"/home/lemu-software-02/ti/simplelink_cc2640r2_sdk_5_10_00_02/source/ti/ble5stack/target/./cc2640r2em/../../boards/CC2640R2DK_4XS/CC2640R2DK_4XS.h", line 298: warning #1-D: last line of file ends without a newline
"/home/lemu-software-02/ti/simplelink_cc2640r2_sdk_5_10_00_02/source/ti/ble5stack/target/./cc2640r2em/../../boards/CC2640R2DK_4XS/Board.h", line 137: warning #1-D: last line of file ends without a newline
Finished building: "../Application/Driver.c"
 
Building file: "../Application/DataProcess.c"
Invoking: Arm Compiler
"/home/lemu-software-02/ti/ccs1020/ccs/tools/compiler/ti-cgt-arm_20.2.2.LTS/bin/armcl" --cmd_file="/home/lemu-software-02/magic/lm_blesdk5/ble5_project_zero_cc2640r2lp_app/TOOLS/defines/ble5_project_zero_cc2640r2lp_app_FlashROM_StackLibrary.opt" --cmd_file="/home/lemu-software-02/ti/simplelink_cc2640r2_sdk_5_10_00_02/source/ti/ble5stack/config/build_components.opt" --cmd_file="/home/lemu-software-02/ti/simplelink_cc2640r2_sdk_5_10_00_02/source/ti/ble5stack/config/factory_config.opt" --cmd_file="/home/lemu-software-02/magic/lm_blesdk5/ble5_project_zero_cc2640r2lp_stack_library/TOOLS/build_config.opt"  -mv7M4 --code_state=16 -me -O2 --opt_for_speed=0 --include_path="/home/lemu-software-02/ti/xdctools_3_51_03_28_core/packages/xdc" --include_path="/home/lemu-software-02/ti/simplelink_cc2640r2_sdk_5_10_00_02/kernel/tirtos/packages/ti/sysbios/hal/package" --include_path="/home/lemu-software-02/ti/simplelink_cc2640r2_sdk_5_10_00_02/source/ti/boards" --include_path="/home/lemu-software-02/ti/simplelink_cc2640r2_sdk_5_10_00_02" --include_path="/home/lemu-software-02/magic/lm_blesdk5/ble5_project_zero_cc2640r2lp_app" --include_path="/home/lemu-software-02/magic/lm_blesdk5/ble5_project_zero_cc2640r2lp_app/Application" --include_path="/home/lemu-software-02/magic/lm_blesdk5/ble5_project_zero_cc2640r2lp_app/Startup" --include_path="/home/lemu-software-02/magic/lm_blesdk5/ble5_project_zero_cc2640r2lp_app/PROFILES" --include_path="/home/lemu-software-02/magic/lm_blesdk5/ble5_project_zero_cc2640r2lp_app/Include" --include_path="/home/lemu-software-02/ti/simplelink_cc2640r2_sdk_5_10_00_02/examples/rtos/CC2640R2_LAUNCHXL/ble5stack/project_zero/src/extra" --include_path="/home/lemu-software-02/ti/simplelink_cc2640r2_sdk_5_10_00_02/source/ti/ble5stack/controller/cc26xx/inc" --include_path="/home/lemu-software-02/ti/simplelink_cc2640r2_sdk_5_10_00_02/source/ti/ble5stack/inc" --include_path="/home/lemu-software-02/ti/simplelink_cc2640r2_sdk_5_10_00_02/source/ti/ble5stack/rom" --include_path="/home/lemu-software-02/ti/simplelink_cc2640r2_sdk_5_10_00_02/source/ti/ble5stack/common/cc26xx" --include_path="/home/lemu-software-02/ti/simplelink_cc2640r2_sdk_5_10_00_02/source/ti/ble5stack/icall/inc" --include_path="/home/lemu-software-02/ti/simplelink_cc2640r2_sdk_5_10_00_02/source/ti/ble5stack/target" --include_path="/home/lemu-software-02/ti/simplelink_cc2640r2_sdk_5_10_00_02/source/ti/ble5stack/hal/src/target/_common" --include_path="/home/lemu-software-02/ti/simplelink_cc2640r2_sdk_5_10_00_02/source/ti/ble5stack/hal/src/target/_common/cc26xx" --include_path="/home/lemu-software-02/ti/simplelink_cc2640r2_sdk_5_10_00_02/source/ti/ble5stack/hal/src/inc" --include_path="/home/lemu-software-02/ti/simplelink_cc2640r2_sdk_5_10_00_02/source/ti/ble5stack/heapmgr" --include_path="/home/lemu-software-02/ti/simplelink_cc2640r2_sdk_5_10_00_02/source/ti/ble5stack/icall/src/inc" --include_path="/home/lemu-software-02/ti/simplelink_cc2640r2_sdk_5_10_00_02/source/ti/ble5stack/osal/src/inc" --include_path="/home/lemu-software-02/ti/simplelink_cc2640r2_sdk_5_10_00_02/source/ti/ble5stack/services/src/saddr" --include_path="/home/lemu-software-02/ti/simplelink_cc2640r2_sdk_5_10_00_02/source/ti/ble5stack/services/src/sdata" --include_path="/home/lemu-software-02/ti/simplelink_cc2640r2_sdk_5_10_00_02/source/ti/devices/cc26x0r2" --include_path="/home/lemu-software-02/ti/ccs1020/ccs/tools/compiler/ti-cgt-arm_20.2.2.LTS/include" --define=DeviceFamily_CC26X0R2 --define=uartlog_FILE="\"DataProcess.c\"" --define=UARTLOG_ENABLE -g --c99 --gcc --diag_warning=225 --diag_wrap=off --display_error_number --gen_func_subsections=on --abi=eabi --preproc_with_compile --preproc_dependency="Application/DataProcess.d_raw" --obj_directory="Application" --cmd_file="configPkg/compiler.opt"  "../Application/DataProcess.c"
"/home/lemu-software-02/ti/simplelink_cc2640r2_sdk_5_10_00_02/source/ti/ble5stack/target/./cc2640r2em/../../boards/CC2640R2DK_4XS/CC2640R2DK_4XS.h", line 298: warning #1-D: last line of file ends without a newline
"/home/lemu-software-02/ti/simplelink_cc2640r2_sdk_5_10_00_02/source/ti/ble5stack/target/./cc2640r2em/../../boards/CC2640R2DK_4XS/Board.h", line 137: warning #1-D: last line of file ends without a newline
Finished building: "../Application/DataProcess.c"
 
Building file: "../Application/TaskBattery.c"
Invoking: Arm Compiler
"/home/lemu-software-02/ti/ccs1020/ccs/tools/compiler/ti-cgt-arm_20.2.2.LTS/bin/armcl" --cmd_file="/home/lemu-software-02/magic/lm_blesdk5/ble5_project_zero_cc2640r2lp_app/TOOLS/defines/ble5_project_zero_cc2640r2lp_app_FlashROM_StackLibrary.opt" --cmd_file="/home/lemu-software-02/ti/simplelink_cc2640r2_sdk_5_10_00_02/source/ti/ble5stack/config/build_components.opt" --cmd_file="/home/lemu-software-02/ti/simplelink_cc2640r2_sdk_5_10_00_02/source/ti/ble5stack/config/factory_config.opt" --cmd_file="/home/lemu-software-02/magic/lm_blesdk5/ble5_project_zero_cc2640r2lp_stack_library/TOOLS/build_config.opt"  -mv7M4 --code_state=16 -me -O2 --opt_for_speed=0 --include_path="/home/lemu-software-02/ti/xdctools_3_51_03_28_core/packages/xdc" --include_path="/home/lemu-software-02/ti/simplelink_cc2640r2_sdk_5_10_00_02/kernel/tirtos/packages/ti/sysbios/hal/package" --include_path="/home/lemu-software-02/ti/simplelink_cc2640r2_sdk_5_10_00_02/source/ti/boards" --include_path="/home/lemu-software-02/ti/simplelink_cc2640r2_sdk_5_10_00_02" --include_path="/home/lemu-software-02/magic/lm_blesdk5/ble5_project_zero_cc2640r2lp_app" --include_path="/home/lemu-software-02/magic/lm_blesdk5/ble5_project_zero_cc2640r2lp_app/Application" --include_path="/home/lemu-software-02/magic/lm_blesdk5/ble5_project_zero_cc2640r2lp_app/Startup" --include_path="/home/lemu-software-02/magic/lm_blesdk5/ble5_project_zero_cc2640r2lp_app/PROFILES" --include_path="/home/lemu-software-02/magic/lm_blesdk5/ble5_project_zero_cc2640r2lp_app/Include" --include_path="/home/lemu-software-02/ti/simplelink_cc2640r2_sdk_5_10_00_02/examples/rtos/CC2640R2_LAUNCHXL/ble5stack/project_zero/src/extra" --include_path="/home/lemu-software-02/ti/simplelink_cc2640r2_sdk_5_10_00_02/source/ti/ble5stack/controller/cc26xx/inc" --include_path="/home/lemu-software-02/ti/simplelink_cc2640r2_sdk_5_10_00_02/source/ti/ble5stack/inc" --include_path="/home/lemu-software-02/ti/simplelink_cc2640r2_sdk_5_10_00_02/source/ti/ble5stack/rom" --include_path="/home/lemu-software-02/ti/simplelink_cc2640r2_sdk_5_10_00_02/source/ti/ble5stack/common/cc26xx" --include_path="/home/lemu-software-02/ti/simplelink_cc2640r2_sdk_5_10_00_02/source/ti/ble5stack/icall/inc" --include_path="/home/lemu-software-02/ti/simplelink_cc2640r2_sdk_5_10_00_02/source/ti/ble5stack/target" --include_path="/home/lemu-software-02/ti/simplelink_cc2640r2_sdk_5_10_00_02/source/ti/ble5stack/hal/src/target/_common" --include_path="/home/lemu-software-02/ti/simplelink_cc2640r2_sdk_5_10_00_02/source/ti/ble5stack/hal/src/target/_common/cc26xx" --include_path="/home/lemu-software-02/ti/simplelink_cc2640r2_sdk_5_10_00_02/source/ti/ble5stack/hal/src/inc" --include_path="/home/lemu-software-02/ti/simplelink_cc2640r2_sdk_5_10_00_02/source/ti/ble5stack/heapmgr" --include_path="/home/lemu-software-02/ti/simplelink_cc2640r2_sdk_5_10_00_02/source/ti/ble5stack/icall/src/inc" --include_path="/home/lemu-software-02/ti/simplelink_cc2640r2_sdk_5_10_00_02/source/ti/ble5stack/osal/src/inc" --include_path="/home/lemu-software-02/ti/simplelink_cc2640r2_sdk_5_10_00_02/source/ti/ble5stack/services/src/saddr" --include_path="/home/lemu-software-02/ti/simplelink_cc2640r2_sdk_5_10_00_02/source/ti/ble5stack/services/src/sdata" --include_path="/home/lemu-software-02/ti/simplelink_cc2640r2_sdk_5_10_00_02/source/ti/devices/cc26x0r2" --include_path="/home/lemu-software-02/ti/ccs1020/ccs/tools/compiler/ti-cgt-arm_20.2.2.LTS/include" --define=DeviceFamily_CC26X0R2 --define=uartlog_FILE="\"TaskBattery.c\"" --define=UARTLOG_ENABLE -g --c99 --gcc --diag_warning=225 --diag_wrap=off --display_error_number --gen_func_subsections=on --abi=eabi --preproc_with_compile --preproc_dependency="Application/TaskBattery.d_raw" --obj_directory="Application" --cmd_file="configPkg/compiler.opt"  "../Application/TaskBattery.c"
Finished building: "../Application/TaskBattery.c"
 
Building file: "../Application/TaskLED.c"
Invoking: Arm Compiler
"/home/lemu-software-02/ti/ccs1020/ccs/tools/compiler/ti-cgt-arm_20.2.2.LTS/bin/armcl" --cmd_file="/home/lemu-software-02/magic/lm_blesdk5/ble5_project_zero_cc2640r2lp_app/TOOLS/defines/ble5_project_zero_cc2640r2lp_app_FlashROM_StackLibrary.opt" --cmd_file="/home/lemu-software-02/ti/simplelink_cc2640r2_sdk_5_10_00_02/source/ti/ble5stack/config/build_components.opt" --cmd_file="/home/lemu-software-02/ti/simplelink_cc2640r2_sdk_5_10_00_02/source/ti/ble5stack/config/factory_config.opt" --cmd_file="/home/lemu-software-02/magic/lm_blesdk5/ble5_project_zero_cc2640r2lp_stack_library/TOOLS/build_config.opt"  -mv7M4 --code_state=16 -me -O2 --opt_for_speed=0 --include_path="/home/lemu-software-02/ti/xdctools_3_51_03_28_core/packages/xdc" --include_path="/home/lemu-software-02/ti/simplelink_cc2640r2_sdk_5_10_00_02/kernel/tirtos/packages/ti/sysbios/hal/package" --include_path="/home/lemu-software-02/ti/simplelink_cc2640r2_sdk_5_10_00_02/source/ti/boards" --include_path="/home/lemu-software-02/ti/simplelink_cc2640r2_sdk_5_10_00_02" --include_path="/home/lemu-software-02/magic/lm_blesdk5/ble5_project_zero_cc2640r2lp_app" --include_path="/home/lemu-software-02/magic/lm_blesdk5/ble5_project_zero_cc2640r2lp_app/Application" --include_path="/home/lemu-software-02/magic/lm_blesdk5/ble5_project_zero_cc2640r2lp_app/Startup" --include_path="/home/lemu-software-02/magic/lm_blesdk5/ble5_project_zero_cc2640r2lp_app/PROFILES" --include_path="/home/lemu-software-02/magic/lm_blesdk5/ble5_project_zero_cc2640r2lp_app/Include" --include_path="/home/lemu-software-02/ti/simplelink_cc2640r2_sdk_5_10_00_02/examples/rtos/CC2640R2_LAUNCHXL/ble5stack/project_zero/src/extra" --include_path="/home/lemu-software-02/ti/simplelink_cc2640r2_sdk_5_10_00_02/source/ti/ble5stack/controller/cc26xx/inc" --include_path="/home/lemu-software-02/ti/simplelink_cc2640r2_sdk_5_10_00_02/source/ti/ble5stack/inc" --include_path="/home/lemu-software-02/ti/simplelink_cc2640r2_sdk_5_10_00_02/source/ti/ble5stack/rom" --include_path="/home/lemu-software-02/ti/simplelink_cc2640r2_sdk_5_10_00_02/source/ti/ble5stack/common/cc26xx" --include_path="/home/lemu-software-02/ti/simplelink_cc2640r2_sdk_5_10_00_02/source/ti/ble5stack/icall/inc" --include_path="/home/lemu-software-02/ti/simplelink_cc2640r2_sdk_5_10_00_02/source/ti/ble5stack/target" --include_path="/home/lemu-software-02/ti/simplelink_cc2640r2_sdk_5_10_00_02/source/ti/ble5stack/hal/src/target/_common" --include_path="/home/lemu-software-02/ti/simplelink_cc2640r2_sdk_5_10_00_02/source/ti/ble5stack/hal/src/target/_common/cc26xx" --include_path="/home/lemu-software-02/ti/simplelink_cc2640r2_sdk_5_10_00_02/source/ti/ble5stack/hal/src/inc" --include_path="/home/lemu-software-02/ti/simplelink_cc2640r2_sdk_5_10_00_02/source/ti/ble5stack/heapmgr" --include_path="/home/lemu-software-02/ti/simplelink_cc2640r2_sdk_5_10_00_02/source/ti/ble5stack/icall/src/inc" --include_path="/home/lemu-software-02/ti/simplelink_cc2640r2_sdk_5_10_00_02/source/ti/ble5stack/osal/src/inc" --include_path="/home/lemu-software-02/ti/simplelink_cc2640r2_sdk_5_10_00_02/source/ti/ble5stack/services/src/saddr" --include_path="/home/lemu-software-02/ti/simplelink_cc2640r2_sdk_5_10_00_02/source/ti/ble5stack/services/src/sdata" --include_path="/home/lemu-software-02/ti/simplelink_cc2640r2_sdk_5_10_00_02/source/ti/devices/cc26x0r2" --include_path="/home/lemu-software-02/ti/ccs1020/ccs/tools/compiler/ti-cgt-arm_20.2.2.LTS/include" --define=DeviceFamily_CC26X0R2 --define=uartlog_FILE="\"TaskLED.c\"" --define=UARTLOG_ENABLE -g --c99 --gcc --diag_warning=225 --diag_wrap=off --display_error_number --gen_func_subsections=on --abi=eabi --preproc_with_compile --preproc_dependency="Application/TaskLED.d_raw" --obj_directory="Application" --cmd_file="configPkg/compiler.opt"  "../Application/TaskLED.c"
Finished building: "../Application/TaskLED.c"
 
Building file: "../Application/TaskManager.c"
Invoking: Arm Compiler
"/home/lemu-software-02/ti/ccs1020/ccs/tools/compiler/ti-cgt-arm_20.2.2.LTS/bin/armcl" --cmd_file="/home/lemu-software-02/magic/lm_blesdk5/ble5_project_zero_cc2640r2lp_app/TOOLS/defines/ble5_project_zero_cc2640r2lp_app_FlashROM_StackLibrary.opt" --cmd_file="/home/lemu-software-02/ti/simplelink_cc2640r2_sdk_5_10_00_02/source/ti/ble5stack/config/build_components.opt" --cmd_file="/home/lemu-software-02/ti/simplelink_cc2640r2_sdk_5_10_00_02/source/ti/ble5stack/config/factory_config.opt" --cmd_file="/home/lemu-software-02/magic/lm_blesdk5/ble5_project_zero_cc2640r2lp_stack_library/TOOLS/build_config.opt"  -mv7M4 --code_state=16 -me -O2 --opt_for_speed=0 --include_path="/home/lemu-software-02/ti/xdctools_3_51_03_28_core/packages/xdc" --include_path="/home/lemu-software-02/ti/simplelink_cc2640r2_sdk_5_10_00_02/kernel/tirtos/packages/ti/sysbios/hal/package" --include_path="/home/lemu-software-02/ti/simplelink_cc2640r2_sdk_5_10_00_02/source/ti/boards" --include_path="/home/lemu-software-02/ti/simplelink_cc2640r2_sdk_5_10_00_02" --include_path="/home/lemu-software-02/magic/lm_blesdk5/ble5_project_zero_cc2640r2lp_app" --include_path="/home/lemu-software-02/magic/lm_blesdk5/ble5_project_zero_cc2640r2lp_app/Application" --include_path="/home/lemu-software-02/magic/lm_blesdk5/ble5_project_zero_cc2640r2lp_app/Startup" --include_path="/home/lemu-software-02/magic/lm_blesdk5/ble5_project_zero_cc2640r2lp_app/PROFILES" --include_path="/home/lemu-software-02/magic/lm_blesdk5/ble5_project_zero_cc2640r2lp_app/Include" --include_path="/home/lemu-software-02/ti/simplelink_cc2640r2_sdk_5_10_00_02/examples/rtos/CC2640R2_LAUNCHXL/ble5stack/project_zero/src/extra" --include_path="/home/lemu-software-02/ti/simplelink_cc2640r2_sdk_5_10_00_02/source/ti/ble5stack/controller/cc26xx/inc" --include_path="/home/lemu-software-02/ti/simplelink_cc2640r2_sdk_5_10_00_02/source/ti/ble5stack/inc" --include_path="/home/lemu-software-02/ti/simplelink_cc2640r2_sdk_5_10_00_02/source/ti/ble5stack/rom" --include_path="/home/lemu-software-02/ti/simplelink_cc2640r2_sdk_5_10_00_02/source/ti/ble5stack/common/cc26xx" --include_path="/home/lemu-software-02/ti/simplelink_cc2640r2_sdk_5_10_00_02/source/ti/ble5stack/icall/inc" --include_path="/home/lemu-software-02/ti/simplelink_cc2640r2_sdk_5_10_00_02/source/ti/ble5stack/target" --include_path="/home/lemu-software-02/ti/simplelink_cc2640r2_sdk_5_10_00_02/source/ti/ble5stack/hal/src/target/_common" --include_path="/home/lemu-software-02/ti/simplelink_cc2640r2_sdk_5_10_00_02/source/ti/ble5stack/hal/src/target/_common/cc26xx" --include_path="/home/lemu-software-02/ti/simplelink_cc2640r2_sdk_5_10_00_02/source/ti/ble5stack/hal/src/inc" --include_path="/home/lemu-software-02/ti/simplelink_cc2640r2_sdk_5_10_00_02/source/ti/ble5stack/heapmgr" --include_path="/home/lemu-software-02/ti/simplelink_cc2640r2_sdk_5_10_00_02/source/ti/ble5stack/icall/src/inc" --include_path="/home/lemu-software-02/ti/simplelink_cc2640r2_sdk_5_10_00_02/source/ti/ble5stack/osal/src/inc" --include_path="/home/lemu-software-02/ti/simplelink_cc2640r2_sdk_5_10_00_02/source/ti/ble5stack/services/src/saddr" --include_path="/home/lemu-software-02/ti/simplelink_cc2640r2_sdk_5_10_00_02/source/ti/ble5stack/services/src/sdata" --include_path="/home/lemu-software-02/ti/simplelink_cc2640r2_sdk_5_10_00_02/source/ti/devices/cc26x0r2" --include_path="/home/lemu-software-02/ti/ccs1020/ccs/tools/compiler/ti-cgt-arm_20.2.2.LTS/include" --define=DeviceFamily_CC26X0R2 --define=uartlog_FILE="\"TaskManager.c\"" --define=UARTLOG_ENABLE -g --c99 --gcc --diag_warning=225 --diag_wrap=off --display_error_number --gen_func_subsections=on --abi=eabi --preproc_with_compile --preproc_dependency="Application/TaskManager.d_raw" --obj_directory="Application" --cmd_file="configPkg/compiler.opt"  "../Application/TaskManager.c"
"/home/lemu-software-02/ti/simplelink_cc2640r2_sdk_5_10_00_02/source/ti/ble5stack/target/./cc2640r2em/../../boards/CC2640R2DK_4XS/CC2640R2DK_4XS.h", line 298: warning #1-D: last line of file ends without a newline
"/home/lemu-software-02/ti/simplelink_cc2640r2_sdk_5_10_00_02/source/ti/ble5stack/target/./cc2640r2em/../../boards/CC2640R2DK_4XS/Board.h", line 137: warning #1-D: last line of file ends without a newline
"../Application/TaskManager.c", line 15: warning #225-D: function "CLK_createTask" declared implicitly
"/home/lemu-software-02/ti/simplelink_cc2640r2_sdk_5_10_00_02/source/ti/ble5stack/target/./cc2640r2em/../../boards/CC2640R2DK_4XS/CC2640R2DK_4XS.h", line 298: warning #1-D: last line of file ends without a newline
"/home/lemu-software-02/ti/simplelink_cc2640r2_sdk_5_10_00_02/source/ti/ble5stack/target/./cc2640r2em/../../boards/CC2640R2DK_4XS/Board.h", line 137: warning #1-D: last line of file ends without a newline
"../Application/TaskCLK.c", line 55: warning #225-D: function "Switch_BCMode" declared implicitly
"../Application/TaskCLK.c", line 60: warning #225-D: function "Trigger_ClkWrite" declared implicitly
"../Application/TaskCLK.c", line 70: warning #225-D: function "Trigger_GapAdv" declared implicitly
"../Application/TaskCLK.c", line 80: warning #225-D: function "Trigger_AdvWrite" declared implicitly
"../Application/TaskCLK.c", line 92: warning #225-D: function "Trigger_GapAdv" declared implicitly
Finished building: "../Application/TaskManager.c"
 
Building file: "../Application/TaskCLK.c"
Invoking: Arm Compiler
"/home/lemu-software-02/ti/ccs1020/ccs/tools/compiler/ti-cgt-arm_20.2.2.LTS/bin/armcl" --cmd_file="/home/lemu-software-02/magic/lm_blesdk5/ble5_project_zero_cc2640r2lp_app/TOOLS/defines/ble5_project_zero_cc2640r2lp_app_FlashROM_StackLibrary.opt" --cmd_file="/home/lemu-software-02/ti/simplelink_cc2640r2_sdk_5_10_00_02/source/ti/ble5stack/config/build_components.opt" --cmd_file="/home/lemu-software-02/ti/simplelink_cc2640r2_sdk_5_10_00_02/source/ti/ble5stack/config/factory_config.opt" --cmd_file="/home/lemu-software-02/magic/lm_blesdk5/ble5_project_zero_cc2640r2lp_stack_library/TOOLS/build_config.opt"  -mv7M4 --code_state=16 -me -O2 --opt_for_speed=0 --include_path="/home/lemu-software-02/ti/xdctools_3_51_03_28_core/packages/xdc" --include_path="/home/lemu-software-02/ti/simplelink_cc2640r2_sdk_5_10_00_02/kernel/tirtos/packages/ti/sysbios/hal/package" --include_path="/home/lemu-software-02/ti/simplelink_cc2640r2_sdk_5_10_00_02/source/ti/boards" --include_path="/home/lemu-software-02/ti/simplelink_cc2640r2_sdk_5_10_00_02" --include_path="/home/lemu-software-02/magic/lm_blesdk5/ble5_project_zero_cc2640r2lp_app" --include_path="/home/lemu-software-02/magic/lm_blesdk5/ble5_project_zero_cc2640r2lp_app/Application" --include_path="/home/lemu-software-02/magic/lm_blesdk5/ble5_project_zero_cc2640r2lp_app/Startup" --include_path="/home/lemu-software-02/magic/lm_blesdk5/ble5_project_zero_cc2640r2lp_app/PROFILES" --include_path="/home/lemu-software-02/magic/lm_blesdk5/ble5_project_zero_cc2640r2lp_app/Include" --include_path="/home/lemu-software-02/ti/simplelink_cc2640r2_sdk_5_10_00_02/examples/rtos/CC2640R2_LAUNCHXL/ble5stack/project_zero/src/extra" --include_path="/home/lemu-software-02/ti/simplelink_cc2640r2_sdk_5_10_00_02/source/ti/ble5stack/controller/cc26xx/inc" --include_path="/home/lemu-software-02/ti/simplelink_cc2640r2_sdk_5_10_00_02/source/ti/ble5stack/inc" --include_path="/home/lemu-software-02/ti/simplelink_cc2640r2_sdk_5_10_00_02/source/ti/ble5stack/rom" --include_path="/home/lemu-software-02/ti/simplelink_cc2640r2_sdk_5_10_00_02/source/ti/ble5stack/common/cc26xx" --include_path="/home/lemu-software-02/ti/simplelink_cc2640r2_sdk_5_10_00_02/source/ti/ble5stack/icall/inc" --include_path="/home/lemu-software-02/ti/simplelink_cc2640r2_sdk_5_10_00_02/source/ti/ble5stack/target" --include_path="/home/lemu-software-02/ti/simplelink_cc2640r2_sdk_5_10_00_02/source/ti/ble5stack/hal/src/target/_common" --include_path="/home/lemu-software-02/ti/simplelink_cc2640r2_sdk_5_10_00_02/source/ti/ble5stack/hal/src/target/_common/cc26xx" --include_path="/home/lemu-software-02/ti/simplelink_cc2640r2_sdk_5_10_00_02/source/ti/ble5stack/hal/src/inc" --include_path="/home/lemu-software-02/ti/simplelink_cc2640r2_sdk_5_10_00_02/source/ti/ble5stack/heapmgr" --include_path="/home/lemu-software-02/ti/simplelink_cc2640r2_sdk_5_10_00_02/source/ti/ble5stack/icall/src/inc" --include_path="/home/lemu-software-02/ti/simplelink_cc2640r2_sdk_5_10_00_02/source/ti/ble5stack/osal/src/inc" --include_path="/home/lemu-software-02/ti/simplelink_cc2640r2_sdk_5_10_00_02/source/ti/ble5stack/services/src/saddr" --include_path="/home/lemu-software-02/ti/simplelink_cc2640r2_sdk_5_10_00_02/source/ti/ble5stack/services/src/sdata" --include_path="/home/lemu-software-02/ti/simplelink_cc2640r2_sdk_5_10_00_02/source/ti/devices/cc26x0r2" --include_path="/home/lemu-software-02/ti/ccs1020/ccs/tools/compiler/ti-cgt-arm_20.2.2.LTS/include" --define=DeviceFamily_CC26X0R2 --define=uartlog_FILE="\"TaskCLK.c\"" --define=UARTLOG_ENABLE -g --c99 --gcc --diag_warning=225 --diag_wrap=off --display_error_number --gen_func_subsections=on --abi=eabi --preproc_with_compile --preproc_dependency="Application/TaskCLK.d_raw" --obj_directory="Application" --cmd_file="configPkg/compiler.opt"  "../Application/TaskCLK.c"
Finished building: "../Application/TaskCLK.c"
 
Building file: "../Startup/main.c"
Invoking: Arm Compiler
"/home/lemu-software-02/ti/ccs1020/ccs/tools/compiler/ti-cgt-arm_20.2.2.LTS/bin/armcl" --cmd_file="/home/lemu-software-02/magic/lm_blesdk5/ble5_project_zero_cc2640r2lp_app/TOOLS/defines/ble5_project_zero_cc2640r2lp_app_FlashROM_StackLibrary.opt" --cmd_file="/home/lemu-software-02/ti/simplelink_cc2640r2_sdk_5_10_00_02/source/ti/ble5stack/config/build_components.opt" --cmd_file="/home/lemu-software-02/ti/simplelink_cc2640r2_sdk_5_10_00_02/source/ti/ble5stack/config/factory_config.opt" --cmd_file="/home/lemu-software-02/magic/lm_blesdk5/ble5_project_zero_cc2640r2lp_stack_library/TOOLS/build_config.opt"  -mv7M4 --code_state=16 -me -O2 --opt_for_speed=0 --include_path="/home/lemu-software-02/ti/xdctools_3_51_03_28_core/packages/xdc" --include_path="/home/lemu-software-02/ti/simplelink_cc2640r2_sdk_5_10_00_02/kernel/tirtos/packages/ti/sysbios/hal/package" --include_path="/home/lemu-software-02/ti/simplelink_cc2640r2_sdk_5_10_00_02/source/ti/boards" --include_path="/home/lemu-software-02/ti/simplelink_cc2640r2_sdk_5_10_00_02" --include_path="/home/lemu-software-02/magic/lm_blesdk5/ble5_project_zero_cc2640r2lp_app" --include_path="/home/lemu-software-02/magic/lm_blesdk5/ble5_project_zero_cc2640r2lp_app/Application" --include_path="/home/lemu-software-02/magic/lm_blesdk5/ble5_project_zero_cc2640r2lp_app/Startup" --include_path="/home/lemu-software-02/magic/lm_blesdk5/ble5_project_zero_cc2640r2lp_app/PROFILES" --include_path="/home/lemu-software-02/magic/lm_blesdk5/ble5_project_zero_cc2640r2lp_app/Include" --include_path="/home/lemu-software-02/ti/simplelink_cc2640r2_sdk_5_10_00_02/examples/rtos/CC2640R2_LAUNCHXL/ble5stack/project_zero/src/extra" --include_path="/home/lemu-software-02/ti/simplelink_cc2640r2_sdk_5_10_00_02/source/ti/ble5stack/controller/cc26xx/inc" --include_path="/home/lemu-software-02/ti/simplelink_cc2640r2_sdk_5_10_00_02/source/ti/ble5stack/inc" --include_path="/home/lemu-software-02/ti/simplelink_cc2640r2_sdk_5_10_00_02/source/ti/ble5stack/rom" --include_path="/home/lemu-software-02/ti/simplelink_cc2640r2_sdk_5_10_00_02/source/ti/ble5stack/common/cc26xx" --include_path="/home/lemu-software-02/ti/simplelink_cc2640r2_sdk_5_10_00_02/source/ti/ble5stack/icall/inc" --include_path="/home/lemu-software-02/ti/simplelink_cc2640r2_sdk_5_10_00_02/source/ti/ble5stack/target" --include_path="/home/lemu-software-02/ti/simplelink_cc2640r2_sdk_5_10_00_02/source/ti/ble5stack/hal/src/target/_common" --include_path="/home/lemu-software-02/ti/simplelink_cc2640r2_sdk_5_10_00_02/source/ti/ble5stack/hal/src/target/_common/cc26xx" --include_path="/home/lemu-software-02/ti/simplelink_cc2640r2_sdk_5_10_00_02/source/ti/ble5stack/hal/src/inc" --include_path="/home/lemu-software-02/ti/simplelink_cc2640r2_sdk_5_10_00_02/source/ti/ble5stack/heapmgr" --include_path="/home/lemu-software-02/ti/simplelink_cc2640r2_sdk_5_10_00_02/source/ti/ble5stack/icall/src/inc" --include_path="/home/lemu-software-02/ti/simplelink_cc2640r2_sdk_5_10_00_02/source/ti/ble5stack/osal/src/inc" --include_path="/home/lemu-software-02/ti/simplelink_cc2640r2_sdk_5_10_00_02/source/ti/ble5stack/services/src/saddr" --include_path="/home/lemu-software-02/ti/simplelink_cc2640r2_sdk_5_10_00_02/source/ti/ble5stack/services/src/sdata" --include_path="/home/lemu-software-02/ti/simplelink_cc2640r2_sdk_5_10_00_02/source/ti/devices/cc26x0r2" --include_path="/home/lemu-software-02/ti/ccs1020/ccs/tools/compiler/ti-cgt-arm_20.2.2.LTS/include" --define=DeviceFamily_CC26X0R2 --define=uartlog_FILE="\"main.c\"" --define=UARTLOG_ENABLE -g --c99 --gcc --diag_warning=225 --diag_wrap=off --display_error_number --gen_func_subsections=on --abi=eabi --preproc_with_compile --preproc_dependency="Startup/main.d_raw" --obj_directory="Startup" --cmd_file="configPkg/compiler.opt"  "../Startup/main.c"
"/home/lemu-software-02/magic/lm_blesdk5/ble5_project_zero_cc2640r2lp_app/Startup/CC2640R2DK_4XS.h", line 88: warning #48-D: incompatible redefinition of macro "CC2640R2DK_4XS"
"/home/lemu-software-02/ti/simplelink_cc2640r2_sdk_5_10_00_02/source/ti/ble5stack/target/./cc2640r2em/../../boards/CC2640R2DK_4XS/Board.h", line 137: warning #1-D: last line of file ends without a newline
Finished building: "../Startup/main.c"
 
Building file: "../Application/TaskSensor.c"
Invoking: Arm Compiler
"/home/lemu-software-02/ti/ccs1020/ccs/tools/compiler/ti-cgt-arm_20.2.2.LTS/bin/armcl" --cmd_file="/home/lemu-software-02/magic/lm_blesdk5/ble5_project_zero_cc2640r2lp_app/TOOLS/defines/ble5_project_zero_cc2640r2lp_app_FlashROM_StackLibrary.opt" --cmd_file="/home/lemu-software-02/ti/simplelink_cc2640r2_sdk_5_10_00_02/source/ti/ble5stack/config/build_components.opt" --cmd_file="/home/lemu-software-02/ti/simplelink_cc2640r2_sdk_5_10_00_02/source/ti/ble5stack/config/factory_config.opt" --cmd_file="/home/lemu-software-02/magic/lm_blesdk5/ble5_project_zero_cc2640r2lp_stack_library/TOOLS/build_config.opt"  -mv7M4 --code_state=16 -me -O2 --opt_for_speed=0 --include_path="/home/lemu-software-02/ti/xdctools_3_51_03_28_core/packages/xdc" --include_path="/home/lemu-software-02/ti/simplelink_cc2640r2_sdk_5_10_00_02/kernel/tirtos/packages/ti/sysbios/hal/package" --include_path="/home/lemu-software-02/ti/simplelink_cc2640r2_sdk_5_10_00_02/source/ti/boards" --include_path="/home/lemu-software-02/ti/simplelink_cc2640r2_sdk_5_10_00_02" --include_path="/home/lemu-software-02/magic/lm_blesdk5/ble5_project_zero_cc2640r2lp_app" --include_path="/home/lemu-software-02/magic/lm_blesdk5/ble5_project_zero_cc2640r2lp_app/Application" --include_path="/home/lemu-software-02/magic/lm_blesdk5/ble5_project_zero_cc2640r2lp_app/Startup" --include_path="/home/lemu-software-02/magic/lm_blesdk5/ble5_project_zero_cc2640r2lp_app/PROFILES" --include_path="/home/lemu-software-02/magic/lm_blesdk5/ble5_project_zero_cc2640r2lp_app/Include" --include_path="/home/lemu-software-02/ti/simplelink_cc2640r2_sdk_5_10_00_02/examples/rtos/CC2640R2_LAUNCHXL/ble5stack/project_zero/src/extra" --include_path="/home/lemu-software-02/ti/simplelink_cc2640r2_sdk_5_10_00_02/source/ti/ble5stack/controller/cc26xx/inc" --include_path="/home/lemu-software-02/ti/simplelink_cc2640r2_sdk_5_10_00_02/source/ti/ble5stack/inc" --include_path="/home/lemu-software-02/ti/simplelink_cc2640r2_sdk_5_10_00_02/source/ti/ble5stack/rom" --include_path="/home/lemu-software-02/ti/simplelink_cc2640r2_sdk_5_10_00_02/source/ti/ble5stack/common/cc26xx" --include_path="/home/lemu-software-02/ti/simplelink_cc2640r2_sdk_5_10_00_02/source/ti/ble5stack/icall/inc" --include_path="/home/lemu-software-02/ti/simplelink_cc2640r2_sdk_5_10_00_02/source/ti/ble5stack/target" --include_path="/home/lemu-software-02/ti/simplelink_cc2640r2_sdk_5_10_00_02/source/ti/ble5stack/hal/src/target/_common" --include_path="/home/lemu-software-02/ti/simplelink_cc2640r2_sdk_5_10_00_02/source/ti/ble5stack/hal/src/target/_common/cc26xx" --include_path="/home/lemu-software-02/ti/simplelink_cc2640r2_sdk_5_10_00_02/source/ti/ble5stack/hal/src/inc" --include_path="/home/lemu-software-02/ti/simplelink_cc2640r2_sdk_5_10_00_02/source/ti/ble5stack/heapmgr" --include_path="/home/lemu-software-02/ti/simplelink_cc2640r2_sdk_5_10_00_02/source/ti/ble5stack/icall/src/inc" --include_path="/home/lemu-software-02/ti/simplelink_cc2640r2_sdk_5_10_00_02/source/ti/ble5stack/osal/src/inc" --include_path="/home/lemu-software-02/ti/simplelink_cc2640r2_sdk_5_10_00_02/source/ti/ble5stack/services/src/saddr" --include_path="/home/lemu-software-02/ti/simplelink_cc2640r2_sdk_5_10_00_02/source/ti/ble5stack/services/src/sdata" --include_path="/home/lemu-software-02/ti/simplelink_cc2640r2_sdk_5_10_00_02/source/ti/devices/cc26x0r2" --include_path="/home/lemu-software-02/ti/ccs1020/ccs/tools/compiler/ti-cgt-arm_20.2.2.LTS/include" --define=DeviceFamily_CC26X0R2 --define=uartlog_FILE="\"TaskSensor.c\"" --define=UARTLOG_ENABLE -g --c99 --gcc --diag_warning=225 --diag_wrap=off --display_error_number --gen_func_subsections=on --abi=eabi --preproc_with_compile --preproc_dependency="Application/TaskSensor.d_raw" --obj_directory="Application" --cmd_file="configPkg/compiler.opt"  "../Application/TaskSensor.c"
"/home/lemu-software-02/ti/simplelink_cc2640r2_sdk_5_10_00_02/source/ti/ble5stack/target/./cc2640r2em/../../boards/CC2640R2DK_4XS/CC2640R2DK_4XS.h", line 298: warning #1-D: last line of file ends without a newline
"/home/lemu-software-02/ti/simplelink_cc2640r2_sdk_5_10_00_02/source/ti/ble5stack/target/./cc2640r2em/../../boards/CC2640R2DK_4XS/Board.h", line 137: warning #1-D: last line of file ends without a newline
Finished building: "../Application/TaskSensor.c"
 
Building file: "../Application/peripheral.c"
Invoking: Arm Compiler
"/home/lemu-software-02/ti/ccs1020/ccs/tools/compiler/ti-cgt-arm_20.2.2.LTS/bin/armcl" --cmd_file="/home/lemu-software-02/magic/lm_blesdk5/ble5_project_zero_cc2640r2lp_app/TOOLS/defines/ble5_project_zero_cc2640r2lp_app_FlashROM_StackLibrary.opt" --cmd_file="/home/lemu-software-02/ti/simplelink_cc2640r2_sdk_5_10_00_02/source/ti/ble5stack/config/build_components.opt" --cmd_file="/home/lemu-software-02/ti/simplelink_cc2640r2_sdk_5_10_00_02/source/ti/ble5stack/config/factory_config.opt" --cmd_file="/home/lemu-software-02/magic/lm_blesdk5/ble5_project_zero_cc2640r2lp_stack_library/TOOLS/build_config.opt"  -mv7M4 --code_state=16 -me -O2 --opt_for_speed=0 --include_path="/home/lemu-software-02/ti/xdctools_3_51_03_28_core/packages/xdc" --include_path="/home/lemu-software-02/ti/simplelink_cc2640r2_sdk_5_10_00_02/kernel/tirtos/packages/ti/sysbios/hal/package" --include_path="/home/lemu-software-02/ti/simplelink_cc2640r2_sdk_5_10_00_02/source/ti/boards" --include_path="/home/lemu-software-02/ti/simplelink_cc2640r2_sdk_5_10_00_02" --include_path="/home/lemu-software-02/magic/lm_blesdk5/ble5_project_zero_cc2640r2lp_app" --include_path="/home/lemu-software-02/magic/lm_blesdk5/ble5_project_zero_cc2640r2lp_app/Application" --include_path="/home/lemu-software-02/magic/lm_blesdk5/ble5_project_zero_cc2640r2lp_app/Startup" --include_path="/home/lemu-software-02/magic/lm_blesdk5/ble5_project_zero_cc2640r2lp_app/PROFILES" --include_path="/home/lemu-software-02/magic/lm_blesdk5/ble5_project_zero_cc2640r2lp_app/Include" --include_path="/home/lemu-software-02/ti/simplelink_cc2640r2_sdk_5_10_00_02/examples/rtos/CC2640R2_LAUNCHXL/ble5stack/project_zero/src/extra" --include_path="/home/lemu-software-02/ti/simplelink_cc2640r2_sdk_5_10_00_02/source/ti/ble5stack/controller/cc26xx/inc" --include_path="/home/lemu-software-02/ti/simplelink_cc2640r2_sdk_5_10_00_02/source/ti/ble5stack/inc" --include_path="/home/lemu-software-02/ti/simplelink_cc2640r2_sdk_5_10_00_02/source/ti/ble5stack/rom" --include_path="/home/lemu-software-02/ti/simplelink_cc2640r2_sdk_5_10_00_02/source/ti/ble5stack/common/cc26xx" --include_path="/home/lemu-software-02/ti/simplelink_cc2640r2_sdk_5_10_00_02/source/ti/ble5stack/icall/inc" --include_path="/home/lemu-software-02/ti/simplelink_cc2640r2_sdk_5_10_00_02/source/ti/ble5stack/target" --include_path="/home/lemu-software-02/ti/simplelink_cc2640r2_sdk_5_10_00_02/source/ti/ble5stack/hal/src/target/_common" --include_path="/home/lemu-software-02/ti/simplelink_cc2640r2_sdk_5_10_00_02/source/ti/ble5stack/hal/src/target/_common/cc26xx" --include_path="/home/lemu-software-02/ti/simplelink_cc2640r2_sdk_5_10_00_02/source/ti/ble5stack/hal/src/inc" --include_path="/home/lemu-software-02/ti/simplelink_cc2640r2_sdk_5_10_00_02/source/ti/ble5stack/heapmgr" --include_path="/home/lemu-software-02/ti/simplelink_cc2640r2_sdk_5_10_00_02/source/ti/ble5stack/icall/src/inc" --include_path="/home/lemu-software-02/ti/simplelink_cc2640r2_sdk_5_10_00_02/source/ti/ble5stack/osal/src/inc" --include_path="/home/lemu-software-02/ti/simplelink_cc2640r2_sdk_5_10_00_02/source/ti/ble5stack/services/src/saddr" --include_path="/home/lemu-software-02/ti/simplelink_cc2640r2_sdk_5_10_00_02/source/ti/ble5stack/services/src/sdata" --include_path="/home/lemu-software-02/ti/simplelink_cc2640r2_sdk_5_10_00_02/source/ti/devices/cc26x0r2" --include_path="/home/lemu-software-02/ti/ccs1020/ccs/tools/compiler/ti-cgt-arm_20.2.2.LTS/include" --define=DeviceFamily_CC26X0R2 --define=uartlog_FILE="\"peripheral.c\"" --define=UARTLOG_ENABLE -g --c99 --gcc --diag_warning=225 --diag_wrap=off --display_error_number --gen_func_subsections=on --abi=eabi --preproc_with_compile --preproc_dependency="Application/peripheral.d_raw" --obj_directory="Application" --cmd_file="configPkg/compiler.opt"  "../Application/peripheral.c"
"/home/lemu-software-02/ti/simplelink_cc2640r2_sdk_5_10_00_02/source/ti/ble5stack/target/./cc2640r2em/../../boards/CC2640R2DK_4XS/CC2640R2DK_4XS.h", line 298: warning #1-D: last line of file ends without a newline
"/home/lemu-software-02/ti/simplelink_cc2640r2_sdk_5_10_00_02/source/ti/ble5stack/target/./cc2640r2em/../../boards/CC2640R2DK_4XS/Board.h", line 137: warning #1-D: last line of file ends without a newline
Finished building: "../Application/peripheral.c"
 
Building target: "ble5_project_zero_cc2640r2lp_app.out"
Invoking: Arm Linker
"/home/lemu-software-02/ti/ccs1020/ccs/tools/compiler/ti-cgt-arm_20.2.2.LTS/bin/armcl" --cmd_file="/home/lemu-software-02/magic/lm_blesdk5/ble5_project_zero_cc2640r2lp_app/TOOLS/defines/ble5_project_zero_cc2640r2lp_app_FlashROM_StackLibrary.opt" --cmd_file="/home/lemu-software-02/ti/simplelink_cc2640r2_sdk_5_10_00_02/source/ti/ble5stack/config/build_components.opt" --cmd_file="/home/lemu-software-02/ti/simplelink_cc2640r2_sdk_5_10_00_02/source/ti/ble5stack/config/factory_config.opt" --cmd_file="/home/lemu-software-02/magic/lm_blesdk5/ble5_project_zero_cc2640r2lp_stack_library/TOOLS/build_config.opt"  -mv7M4 --code_state=16 -me -O2 --opt_for_speed=0 --define=DeviceFamily_CC26X0R2 --define=uartlog_FILE="\"\"" --define=UARTLOG_ENABLE -g --c99 --gcc --diag_warning=225 --diag_wrap=off --display_error_number --gen_func_subsections=on --abi=eabi -z -m"ble5_project_zero_cc2640r2lp_app.map" --heap_size=0 --stack_size=256 -i"/home/lemu-software-02/ti/ccs1020/ccs/tools/compiler/ti-cgt-arm_20.2.2.LTS/lib" -i"/home/lemu-software-02/ti/ccs1020/ccs/tools/compiler/ti-cgt-arm_20.2.2.LTS/include" --reread_libs --define=CC26X0ROM=2 --diag_suppress=16002-D --diag_suppress=10247-D --diag_suppress=10325-D --diag_suppress=10229-D --diag_suppress=16032-D --diag_wrap=off --display_error_number --warn_sections --xml_link_info="ble5_project_zero_cc2640r2lp_app_linkInfo.xml" --rom_model -o "ble5_project_zero_cc2640r2lp_app.out" "./Application/Battery.obj" "./Application/CRC.obj" "./Application/ControlService.obj" "./Application/DataProcess.obj" "./Application/Driver.obj" "./Application/Global.obj" "./Application/TaskBattery.obj" "./Application/TaskCLK.obj" "./Application/TaskLED.obj" "./Application/TaskMail.obj" "./Application/TaskManager.obj" "./Application/TaskSensor.obj" "./Application/peripheral.obj" "./Application/util.obj" "./Drivers/ECC/ECCROMCC26XX.obj" "./Drivers/TRNG/TRNGCC26XX.obj" "./ICall/icall.obj" "./ICall/icall_cc2650.obj" "./ICall/icall_user_config.obj" "./ICallBLE/ble_user_config.obj" "./ICallBLE/icall_api_lite.obj" "./PROFILES/devinfoservice.obj" "./PROFILES/gatt_uuid.obj" "./PROFILES/gattservapp_util.obj" "./Startup/CC2640R2DK_4XS.obj" "./Startup/CC2640R2_LAUNCHXL_fxns.obj" "./Startup/UartLog.obj" "./Startup/ccfg_app_ble.obj" "./Startup/main.obj" -l"configPkg/linker.cmd"  -l"/home/lemu-software-02/ti/simplelink_cc2640r2_sdk_5_10_00_02/source/ti/devices/cc26x0r2/driverlib/bin/ccs/driverlib.lib" -l"/home/lemu-software-02/ti/simplelink_cc2640r2_sdk_5_10_00_02/kernel/tirtos/packages/ti/dpl/lib/dpl_cc26x0r2.aem3" -l"/home/lemu-software-02/ti/simplelink_cc2640r2_sdk_5_10_00_02/source/ti/drivers/lib/drivers_cc26x0r2.aem3" -l"/home/lemu-software-02/ti/simplelink_cc2640r2_sdk_5_10_00_02/source/ti/drivers/rf/lib/rf_singleMode_cc26x0r2.aem3" -l"/home/lemu-software-02/ti/simplelink_cc2640r2_sdk_5_10_00_02/source/ti/display/lib/display.aem3" -l"/home/lemu-software-02/ti/simplelink_cc2640r2_sdk_5_10_00_02/source/ti/grlib/lib/ccs/m3/grlib.a" -l"/home/lemu-software-02/magic/lm_blesdk5/ble5_project_zero_cc2640r2lp_stack_library/FlashROM_Library/ble_r2.symbols" -l"/home/lemu-software-02/magic/lm_blesdk5/ble5_project_zero_cc2640r2lp_stack_library/FlashROM_Library/lib_linker.cmd" -l"/home/lemu-software-02/magic/lm_blesdk5/ble5_project_zero_cc2640r2lp_stack_library/FlashROM_Library/ble5_project_zero_cc2640r2lp_stack_library.lib" -l"/home/lemu-software-02/ti/simplelink_cc2640r2_sdk_5_10_00_02/source/ti/ble5stack/common/cc26xx/ccs/cc26xx_app.cmd" -llibc.a 
<Linking>
Finished building target: "ble5_project_zero_cc2640r2lp_app.out"
 
Building files: "ble5_project_zero_cc2640r2lp_app.out"
Invoking: Arm Hex Utility
"/home/lemu-software-02/ti/ccs1020/ccs/tools/compiler/ti-cgt-arm_20.2.2.LTS/bin/armhex" --memwidth=8 --romwidth=8 --diag_wrap=off --intel -o "ble5_project_zero_cc2640r2lp_app.hex"  "ble5_project_zero_cc2640r2lp_app.out" 
Translating to Intel format...
   "ble5_project_zero_cc2640r2lp_app.out" .resetVecs ==> .resetVecs
   "ble5_project_zero_cc2640r2lp_app.out" .text.1 ==> .text.1
   "ble5_project_zero_cc2640r2lp_app.out" .const:ti_sysbios_heaps_HeapMem_Module__FXNS__C ==> .const:ti_sysbios_heaps_HeapMem_Module__FXNS__C
   "ble5_project_zero_cc2640r2lp_app.out" .const:ti_sysbios_gates_GateHwi_Module__FXNS__C ==> .const:ti_sysbios_gates_GateHwi_Module__FXNS__C
   "ble5_project_zero_cc2640r2lp_app.out" .const:ti_sysbios_gates_GateMutex_Module__FXNS__C ==> .const:ti_sysbios_gates_GateMutex_Module__FXNS__C
   "ble5_project_zero_cc2640r2lp_app.out" .const:ti_sysbios_family_arm_m3_Hwi_Object__DESC__C ==> .const:ti_sysbios_family_arm_m3_Hwi_Object__DESC__C
   "ble5_project_zero_cc2640r2lp_app.out" .const:ti_sysbios_gates_GateHwi_Object__DESC__C ==> .const:ti_sysbios_gates_GateHwi_Object__DESC__C
   "ble5_project_zero_cc2640r2lp_app.out" .const:ti_sysbios_gates_GateMutex_Object__DESC__C ==> .const:ti_sysbios_gates_GateMutex_Object__DESC__C
   "ble5_project_zero_cc2640r2lp_app.out" .const:ti_sysbios_hal_Hwi_Object__DESC__C ==> .const:ti_sysbios_hal_Hwi_Object__DESC__C
   "ble5_project_zero_cc2640r2lp_app.out" .const:ti_sysbios_heaps_HeapMem_Object__DESC__C ==> .const:ti_sysbios_heaps_HeapMem_Object__DESC__C
   "ble5_project_zero_cc2640r2lp_app.out" .const:ti_sysbios_knl_Clock_Object__DESC__C ==> .const:ti_sysbios_knl_Clock_Object__DESC__C
   "ble5_project_zero_cc2640r2lp_app.out" .const:ti_sysbios_knl_Event_Object__DESC__C ==> .const:ti_sysbios_knl_Event_Object__DESC__C
   "ble5_project_zero_cc2640r2lp_app.out" .const:ti_sysbios_knl_Mailbox_Object__DESC__C ==> .const:ti_sysbios_knl_Mailbox_Object__DESC__C
   "ble5_project_zero_cc2640r2lp_app.out" .const:ti_sysbios_knl_Queue_Object__DESC__C ==> .const:ti_sysbios_knl_Queue_Object__DESC__C
   "ble5_project_zero_cc2640r2lp_app.out" .const:ti_sysbios_knl_Semaphore_Object__DESC__C ==> .const:ti_sysbios_knl_Semaphore_Object__DESC__C
   "ble5_project_zero_cc2640r2lp_app.out" .const:ti_sysbios_knl_Swi_Object__DESC__C ==> .const:ti_sysbios_knl_Swi_Object__DESC__C
   "ble5_project_zero_cc2640r2lp_app.out" .const:ti_sysbios_knl_Task_Object__DESC__C ==> .const:ti_sysbios_knl_Task_Object__DESC__C
   "ble5_project_zero_cc2640r2lp_app.out" .const:ti_sysbios_knl_Idle_funcList__C ==> .const:ti_sysbios_knl_Idle_funcList__C
   "ble5_project_zero_cc2640r2lp_app.out" .const:ti_sysbios_family_arm_cc26xx_Timer_startupNeeded__C ==> .const:ti_sysbios_family_arm_cc26xx_Timer_startupNeeded__C
   "ble5_project_zero_cc2640r2lp_app.out" .const:ti_sysbios_family_arm_m3_Hwi_E_alreadyDefined__C ==> .const:ti_sysbios_family_arm_m3_Hwi_E_alreadyDefined__C
   "ble5_project_zero_cc2640r2lp_app.out" .const:ti_sysbios_family_arm_m3_Hwi_E_hwiLimitExceeded__C ==> .const:ti_sysbios_family_arm_m3_Hwi_E_hwiLimitExceeded__C
   "ble5_project_zero_cc2640r2lp_app.out" .const:ti_sysbios_family_arm_m3_Hwi_NUM_INTERRUPTS__C ==> .const:ti_sysbios_family_arm_m3_Hwi_NUM_INTERRUPTS__C
   "ble5_project_zero_cc2640r2lp_app.out" .const:ti_sysbios_family_arm_m3_Hwi_Object__count__C ==> .const:ti_sysbios_family_arm_m3_Hwi_Object__count__C
   "ble5_project_zero_cc2640r2lp_app.out" .const:ti_sysbios_family_arm_m3_Hwi_Object__table__C ==> .const:ti_sysbios_family_arm_m3_Hwi_Object__table__C
   "ble5_project_zero_cc2640r2lp_app.out" .const:ti_sysbios_family_arm_m3_Hwi_ccr__C ==> .const:ti_sysbios_family_arm_m3_Hwi_ccr__C
   "ble5_project_zero_cc2640r2lp_app.out" .const:ti_sysbios_family_arm_m3_Hwi_excHandlerFunc__C ==> .const:ti_sysbios_family_arm_m3_Hwi_excHandlerFunc__C
   "ble5_project_zero_cc2640r2lp_app.out" .const:ti_sysbios_family_arm_m3_Hwi_nullIsrFunc__C ==> .const:ti_sysbios_family_arm_m3_Hwi_nullIsrFunc__C
   "ble5_project_zero_cc2640r2lp_app.out" .const:ti_sysbios_family_arm_m3_Hwi_numSparseInterrupts__C ==> .const:ti_sysbios_family_arm_m3_Hwi_numSparseInterrupts__C
   "ble5_project_zero_cc2640r2lp_app.out" .const:ti_sysbios_family_arm_m3_Hwi_priGroup__C ==> .const:ti_sysbios_family_arm_m3_Hwi_priGroup__C
   "ble5_project_zero_cc2640r2lp_app.out" .const:ti_sysbios_family_arm_m3_TaskSupport_stackAlignment__C ==> .const:ti_sysbios_family_arm_m3_TaskSupport_stackAlignment__C
   "ble5_project_zero_cc2640r2lp_app.out" .const:ti_sysbios_heaps_HeapMem_E_memory__C ==> .const:ti_sysbios_heaps_HeapMem_E_memory__C
   "ble5_project_zero_cc2640r2lp_app.out" .const:ti_sysbios_heaps_HeapMem_Module__gateObj__C ==> .const:ti_sysbios_heaps_HeapMem_Module__gateObj__C
   "ble5_project_zero_cc2640r2lp_app.out" .const:ti_sysbios_heaps_HeapMem_Object__count__C ==> .const:ti_sysbios_heaps_HeapMem_Object__count__C
   "ble5_project_zero_cc2640r2lp_app.out" .const:ti_sysbios_heaps_HeapMem_Object__table__C ==> .const:ti_sysbios_heaps_HeapMem_Object__table__C
   "ble5_project_zero_cc2640r2lp_app.out" .const:ti_sysbios_heaps_HeapMem_reqAlign__C ==> .const:ti_sysbios_heaps_HeapMem_reqAlign__C
   "ble5_project_zero_cc2640r2lp_app.out" .const:ti_sysbios_knl_Clock_triggerClock__C ==> .const:ti_sysbios_knl_Clock_triggerClock__C
   "ble5_project_zero_cc2640r2lp_app.out" .const:ti_sysbios_knl_Mailbox_Object__count__C ==> .const:ti_sysbios_knl_Mailbox_Object__count__C
   "ble5_project_zero_cc2640r2lp_app.out" .const:ti_sysbios_knl_Mailbox_Object__table__C ==> .const:ti_sysbios_knl_Mailbox_Object__table__C
   "ble5_project_zero_cc2640r2lp_app.out" .const:ti_sysbios_knl_Mailbox_maxTypeAlign__C ==> .const:ti_sysbios_knl_Mailbox_maxTypeAlign__C
   "ble5_project_zero_cc2640r2lp_app.out" .const:ti_sysbios_knl_Queue_Object__count__C ==> .const:ti_sysbios_knl_Queue_Object__count__C
   "ble5_project_zero_cc2640r2lp_app.out" .const:ti_sysbios_knl_Queue_Object__table__C ==> .const:ti_sysbios_knl_Queue_Object__table__C
   "ble5_project_zero_cc2640r2lp_app.out" .const:ti_sysbios_knl_Semaphore_eventPost__C ==> .const:ti_sysbios_knl_Semaphore_eventPost__C
   "ble5_project_zero_cc2640r2lp_app.out" .const:ti_sysbios_knl_Semaphore_eventSync__C ==> .const:ti_sysbios_knl_Semaphore_eventSync__C
   "ble5_project_zero_cc2640r2lp_app.out" .const:ti_sysbios_knl_Swi_Object__count__C ==> .const:ti_sysbios_knl_Swi_Object__count__C
   "ble5_project_zero_cc2640r2lp_app.out" .const:ti_sysbios_knl_Swi_Object__table__C ==> .const:ti_sysbios_knl_Swi_Object__table__C
   "ble5_project_zero_cc2640r2lp_app.out" .const:ti_sysbios_knl_Swi_numPriorities__C ==> .const:ti_sysbios_knl_Swi_numPriorities__C
   "ble5_project_zero_cc2640r2lp_app.out" .const:ti_sysbios_knl_Task_Object__count__C ==> .const:ti_sysbios_knl_Task_Object__count__C
   "ble5_project_zero_cc2640r2lp_app.out" .const:ti_sysbios_knl_Task_Object__table__C ==> .const:ti_sysbios_knl_Task_Object__table__C
   "ble5_project_zero_cc2640r2lp_app.out" .const:ti_sysbios_knl_Task_allBlockedFunc__C ==> .const:ti_sysbios_knl_Task_allBlockedFunc__C
   "ble5_project_zero_cc2640r2lp_app.out" .const:ti_sysbios_knl_Task_defaultStackHeap__C ==> .const:ti_sysbios_knl_Task_defaultStackHeap__C
   "ble5_project_zero_cc2640r2lp_app.out" .const:ti_sysbios_knl_Task_defaultStackSize__C ==> .const:ti_sysbios_knl_Task_defaultStackSize__C
   "ble5_project_zero_cc2640r2lp_app.out" .const:ti_sysbios_knl_Task_numConstructedTasks__C ==> .const:ti_sysbios_knl_Task_numConstructedTasks__C
   "ble5_project_zero_cc2640r2lp_app.out" .const:ti_sysbios_family_arm_cc26xx_Timer_Module__id__C ==> .const:ti_sysbios_family_arm_cc26xx_Timer_Module__id__C
   "ble5_project_zero_cc2640r2lp_app.out" .const:ti_sysbios_family_arm_cc26xx_TimestampProvider_useClockTimer__C ==> .const:ti_sysbios_family_arm_cc26xx_TimestampProvider_useClockTimer__C
   "ble5_project_zero_cc2640r2lp_app.out" .const:ti_sysbios_family_arm_m3_Hwi_Module__id__C ==> .const:ti_sysbios_family_arm_m3_Hwi_Module__id__C
   "ble5_project_zero_cc2640r2lp_app.out" .const:ti_sysbios_gates_GateHwi_Module__id__C ==> .const:ti_sysbios_gates_GateHwi_Module__id__C
   "ble5_project_zero_cc2640r2lp_app.out" .const:ti_sysbios_gates_GateMutex_Module__id__C ==> .const:ti_sysbios_gates_GateMutex_Module__id__C
   "ble5_project_zero_cc2640r2lp_app.out" .const:ti_sysbios_heaps_HeapMem_Module__id__C ==> .const:ti_sysbios_heaps_HeapMem_Module__id__C
   "ble5_project_zero_cc2640r2lp_app.out" .const:ti_sysbios_knl_Task_initStackFlag__C ==> .const:ti_sysbios_knl_Task_initStackFlag__C
   "ble5_project_zero_cc2640r2lp_app.out" .const:ti_sysbios_knl_Clock_tickMode__C ==> .const:ti_sysbios_knl_Clock_tickMode__C
   "ble5_project_zero_cc2640r2lp_app.out" .const:xdc_runtime_Startup_firstFxns__C ==> .const:xdc_runtime_Startup_firstFxns__C
   "ble5_project_zero_cc2640r2lp_app.out" .const:xdc_runtime_Startup_lastFxns__C ==> .const:xdc_runtime_Startup_lastFxns__C
   "ble5_project_zero_cc2640r2lp_app.out" .const:xdc_runtime_Assert_E_assertFailed__C ==> .const:xdc_runtime_Assert_E_assertFailed__C
   "ble5_project_zero_cc2640r2lp_app.out" .const:xdc_runtime_Error_E_memory__C ==> .const:xdc_runtime_Error_E_memory__C
   "ble5_project_zero_cc2640r2lp_app.out" .const:xdc_runtime_Error_policyFxn__C ==> .const:xdc_runtime_Error_policyFxn__C
   "ble5_project_zero_cc2640r2lp_app.out" .const:xdc_runtime_Error_raiseHook__C ==> .const:xdc_runtime_Error_raiseHook__C
   "ble5_project_zero_cc2640r2lp_app.out" .const:xdc_runtime_IGateProvider_Interface__BASE__C ==> .const:xdc_runtime_IGateProvider_Interface__BASE__C
   "ble5_project_zero_cc2640r2lp_app.out" .const:xdc_runtime_IHeap_Interface__BASE__C ==> .const:xdc_runtime_IHeap_Interface__BASE__C
   "ble5_project_zero_cc2640r2lp_app.out" .const:xdc_runtime_IModule_Interface__BASE__C ==> .const:xdc_runtime_IModule_Interface__BASE__C
   "ble5_project_zero_cc2640r2lp_app.out" .const:xdc_runtime_Memory_defaultHeapInstance__C ==> .const:xdc_runtime_Memory_defaultHeapInstance__C
   "ble5_project_zero_cc2640r2lp_app.out" .const:xdc_runtime_Startup_execImpl__C ==> .const:xdc_runtime_Startup_execImpl__C
   "ble5_project_zero_cc2640r2lp_app.out" .const:xdc_runtime_Startup_maxPasses__C ==> .const:xdc_runtime_Startup_maxPasses__C
   "ble5_project_zero_cc2640r2lp_app.out" .const:xdc_runtime_Startup_sfxnRts__C ==> .const:xdc_runtime_Startup_sfxnRts__C
   "ble5_project_zero_cc2640r2lp_app.out" .const:xdc_runtime_Startup_sfxnTab__C ==> .const:xdc_runtime_Startup_sfxnTab__C
   "ble5_project_zero_cc2640r2lp_app.out" .const:xdc_runtime_Startup_startModsFxn__C ==> .const:xdc_runtime_Startup_startModsFxn__C
   "ble5_project_zero_cc2640r2lp_app.out" .const:xdc_runtime_SysCallback_abortFxn__C ==> .const:xdc_runtime_SysCallback_abortFxn__C
   "ble5_project_zero_cc2640r2lp_app.out" .const:xdc_runtime_SysCallback_exitFxn__C ==> .const:xdc_runtime_SysCallback_exitFxn__C
   "ble5_project_zero_cc2640r2lp_app.out" .const:xdc_runtime_System_abortFxn__C ==> .const:xdc_runtime_System_abortFxn__C
   "ble5_project_zero_cc2640r2lp_app.out" .const:xdc_runtime_System_exitFxn__C ==> .const:xdc_runtime_System_exitFxn__C
   "ble5_project_zero_cc2640r2lp_app.out" .const:xdc_runtime_System_maxAtexitHandlers__C ==> .const:xdc_runtime_System_maxAtexitHandlers__C
   "ble5_project_zero_cc2640r2lp_app.out" .const:xdc_runtime_Text_charTab__C ==> .const:xdc_runtime_Text_charTab__C
   "ble5_project_zero_cc2640r2lp_app.out" .const:xdc_runtime_Text_nameEmpty__C ==> .const:xdc_runtime_Text_nameEmpty__C
   "ble5_project_zero_cc2640r2lp_app.out" .const:xdc_runtime_Text_nameStatic__C ==> .const:xdc_runtime_Text_nameStatic__C
   "ble5_project_zero_cc2640r2lp_app.out" .const:xdc_runtime_Text_nameUnknown__C ==> .const:xdc_runtime_Text_nameUnknown__C
   "ble5_project_zero_cc2640r2lp_app.out" .const:xdc_runtime_Error_maxDepth__C ==> .const:xdc_runtime_Error_maxDepth__C
   "ble5_project_zero_cc2640r2lp_app.out" .const:xdc_runtime_Memory_Module__id__C ==> .const:xdc_runtime_Memory_Module__id__C
   "ble5_project_zero_cc2640r2lp_app.out" .const:xdc_runtime_Text_charCnt__C ==> .const:xdc_runtime_Text_charCnt__C
   "ble5_project_zero_cc2640r2lp_app.out" .const:xdc_runtime_Text_isLoaded__C ==> .const:xdc_runtime_Text_isLoaded__C
   "ble5_project_zero_cc2640r2lp_app.out" .const:xdc_runtime_Error_policy__C ==> .const:xdc_runtime_Error_policy__C
   "ble5_project_zero_cc2640r2lp_app.out" .const:ti_sysbios_rom_ROM_ti_sysbios_family_arm_cc26xx_Timer_getCount64__E ==> .const:ti_sysbios_rom_ROM_ti_sysbios_family_arm_cc26xx_Timer_getCount64__E
   "ble5_project_zero_cc2640r2lp_app.out" .const:ti_sysbios_rom_ROM_ti_sysbios_family_arm_cc26xx_Timer_getCurrentTick__E ==> .const:ti_sysbios_rom_ROM_ti_sysbios_family_arm_cc26xx_Timer_getCurrentTick__E
   "ble5_project_zero_cc2640r2lp_app.out" .const:ti_sysbios_rom_ROM_ti_sysbios_family_arm_cc26xx_Timer_getMaxTicks__E ==> .const:ti_sysbios_rom_ROM_ti_sysbios_family_arm_cc26xx_Timer_getMaxTicks__E
   "ble5_project_zero_cc2640r2lp_app.out" .const:ti_sysbios_rom_ROM_ti_sysbios_family_arm_cc26xx_Timer_initDevice__I ==> .const:ti_sysbios_rom_ROM_ti_sysbios_family_arm_cc26xx_Timer_initDevice__I
   "ble5_project_zero_cc2640r2lp_app.out" .const:ti_sysbios_rom_ROM_ti_sysbios_family_arm_cc26xx_Timer_setNextTick__E ==> .const:ti_sysbios_rom_ROM_ti_sysbios_family_arm_cc26xx_Timer_setNextTick__E
   "ble5_project_zero_cc2640r2lp_app.out" .const:ti_sysbios_rom_ROM_ti_sysbios_family_arm_cc26xx_Timer_setThreshold__I ==> .const:ti_sysbios_rom_ROM_ti_sysbios_family_arm_cc26xx_Timer_setThreshold__I
   "ble5_project_zero_cc2640r2lp_app.out" .const:ti_sysbios_rom_ROM_ti_sysbios_family_arm_cc26xx_Timer_start__E ==> .const:ti_sysbios_rom_ROM_ti_sysbios_family_arm_cc26xx_Timer_start__E
   "ble5_project_zero_cc2640r2lp_app.out" .const:ti_sysbios_rom_ROM_ti_sysbios_family_arm_cc26xx_TimestampProvider_get32__E ==> .const:ti_sysbios_rom_ROM_ti_sysbios_family_arm_cc26xx_TimestampProvider_get32__E
   "ble5_project_zero_cc2640r2lp_app.out" .const:ti_sysbios_rom_ROM_xdc_runtime_Startup_getState__I ==> .const:ti_sysbios_rom_ROM_xdc_runtime_Startup_getState__I
   "ble5_project_zero_cc2640r2lp_app.out" .const:ti_sysbios_rom_ROM_xdc_runtime_System_SupportProxy_abort__E ==> .const:ti_sysbios_rom_ROM_xdc_runtime_System_SupportProxy_abort__E
   "ble5_project_zero_cc2640r2lp_app.out" .const:ti_sysbios_rom_ROM_xdc_runtime_System_SupportProxy_exit__E ==> .const:ti_sysbios_rom_ROM_xdc_runtime_System_SupportProxy_exit__E
   "ble5_project_zero_cc2640r2lp_app.out" .text.2 ==> .text.2
   "ble5_project_zero_cc2640r2lp_app.out" .const ==> .const
   "ble5_project_zero_cc2640r2lp_app.out" .rodata ==> .rodata
   "ble5_project_zero_cc2640r2lp_app.out" .TI.bound:NV_FLASH ==> .TI.bound:NV_FLASH
   "ble5_project_zero_cc2640r2lp_app.out" .cinit ==> .cinit
   "ble5_project_zero_cc2640r2lp_app.out" .ccfg ==> .ccfg
Finished building: "ble5_project_zero_cc2640r2lp_app.out"
 
/home/lemu-software-02/ti/ccs1020/ccs/tools/compiler/ti-cgt-arm_20.2.2.LTS/bin/armhex -order MS --memwidth=8 --romwidth=8 --intel -o ble5_project_zero_cc2640r2lp_app.hex ble5_project_zero_cc2640r2lp_app.out
Translating to Intel format...
   "ble5_project_zero_cc2640r2lp_app.out" .resetVecs ==> .resetVecs
   "ble5_project_zero_cc2640r2lp_app.out" .text.1 ==> .text.1
   "ble5_project_zero_cc2640r2lp_app.out" .const:ti_sysbios_heaps_HeapMem_Module__FXNS__C ==> .const:ti_sysbios_heaps_HeapMem_Module__FXNS__C
   "ble5_project_zero_cc2640r2lp_app.out" .const:ti_sysbios_gates_GateHwi_Module__FXNS__C ==> .const:ti_sysbios_gates_GateHwi_Module__FXNS__C
   "ble5_project_zero_cc2640r2lp_app.out" .const:ti_sysbios_gates_GateMutex_Module__FXNS__C ==> .const:ti_sysbios_gates_GateMutex_Module__FXNS__C
   "ble5_project_zero_cc2640r2lp_app.out" .const:ti_sysbios_family_arm_m3_Hwi_Object__DESC__C ==> .const:ti_sysbios_family_arm_m3_Hwi_Object__DESC__C
   "ble5_project_zero_cc2640r2lp_app.out" .const:ti_sysbios_gates_GateHwi_Object__DESC__C ==> .const:ti_sysbios_gates_GateHwi_Object__DESC__C
   "ble5_project_zero_cc2640r2lp_app.out" .const:ti_sysbios_gates_GateMutex_Object__DESC__C ==> .const:ti_sysbios_gates_GateMutex_Object__DESC__C
   "ble5_project_zero_cc2640r2lp_app.out" .const:ti_sysbios_hal_Hwi_Object__DESC__C ==> .const:ti_sysbios_hal_Hwi_Object__DESC__C
   "ble5_project_zero_cc2640r2lp_app.out" .const:ti_sysbios_heaps_HeapMem_Object__DESC__C ==> .const:ti_sysbios_heaps_HeapMem_Object__DESC__C
   "ble5_project_zero_cc2640r2lp_app.out" .const:ti_sysbios_knl_Clock_Object__DESC__C ==> .const:ti_sysbios_knl_Clock_Object__DESC__C
   "ble5_project_zero_cc2640r2lp_app.out" .const:ti_sysbios_knl_Event_Object__DESC__C ==> .const:ti_sysbios_knl_Event_Object__DESC__C
   "ble5_project_zero_cc2640r2lp_app.out" .const:ti_sysbios_knl_Mailbox_Object__DESC__C ==> .const:ti_sysbios_knl_Mailbox_Object__DESC__C
   "ble5_project_zero_cc2640r2lp_app.out" .const:ti_sysbios_knl_Queue_Object__DESC__C ==> .const:ti_sysbios_knl_Queue_Object__DESC__C
   "ble5_project_zero_cc2640r2lp_app.out" .const:ti_sysbios_knl_Semaphore_Object__DESC__C ==> .const:ti_sysbios_knl_Semaphore_Object__DESC__C
   "ble5_project_zero_cc2640r2lp_app.out" .const:ti_sysbios_knl_Swi_Object__DESC__C ==> .const:ti_sysbios_knl_Swi_Object__DESC__C
   "ble5_project_zero_cc2640r2lp_app.out" .const:ti_sysbios_knl_Task_Object__DESC__C ==> .const:ti_sysbios_knl_Task_Object__DESC__C
   "ble5_project_zero_cc2640r2lp_app.out" .const:ti_sysbios_knl_Idle_funcList__C ==> .const:ti_sysbios_knl_Idle_funcList__C
   "ble5_project_zero_cc2640r2lp_app.out" .const:ti_sysbios_family_arm_cc26xx_Timer_startupNeeded__C ==> .const:ti_sysbios_family_arm_cc26xx_Timer_startupNeeded__C
   "ble5_project_zero_cc2640r2lp_app.out" .const:ti_sysbios_family_arm_m3_Hwi_E_alreadyDefined__C ==> .const:ti_sysbios_family_arm_m3_Hwi_E_alreadyDefined__C
   "ble5_project_zero_cc2640r2lp_app.out" .const:ti_sysbios_family_arm_m3_Hwi_E_hwiLimitExceeded__C ==> .const:ti_sysbios_family_arm_m3_Hwi_E_hwiLimitExceeded__C
   "ble5_project_zero_cc2640r2lp_app.out" .const:ti_sysbios_family_arm_m3_Hwi_NUM_INTERRUPTS__C ==> .const:ti_sysbios_family_arm_m3_Hwi_NUM_INTERRUPTS__C
   "ble5_project_zero_cc2640r2lp_app.out" .const:ti_sysbios_family_arm_m3_Hwi_Object__count__C ==> .const:ti_sysbios_family_arm_m3_Hwi_Object__count__C
   "ble5_project_zero_cc2640r2lp_app.out" .const:ti_sysbios_family_arm_m3_Hwi_Object__table__C ==> .const:ti_sysbios_family_arm_m3_Hwi_Object__table__C
   "ble5_project_zero_cc2640r2lp_app.out" .const:ti_sysbios_family_arm_m3_Hwi_ccr__C ==> .const:ti_sysbios_family_arm_m3_Hwi_ccr__C
   "ble5_project_zero_cc2640r2lp_app.out" .const:ti_sysbios_family_arm_m3_Hwi_excHandlerFunc__C ==> .const:ti_sysbios_family_arm_m3_Hwi_excHandlerFunc__C
   "ble5_project_zero_cc2640r2lp_app.out" .const:ti_sysbios_family_arm_m3_Hwi_nullIsrFunc__C ==> .const:ti_sysbios_family_arm_m3_Hwi_nullIsrFunc__C
   "ble5_project_zero_cc2640r2lp_app.out" .const:ti_sysbios_family_arm_m3_Hwi_numSparseInterrupts__C ==> .const:ti_sysbios_family_arm_m3_Hwi_numSparseInterrupts__C
   "ble5_project_zero_cc2640r2lp_app.out" .const:ti_sysbios_family_arm_m3_Hwi_priGroup__C ==> .const:ti_sysbios_family_arm_m3_Hwi_priGroup__C
   "ble5_project_zero_cc2640r2lp_app.out" .const:ti_sysbios_family_arm_m3_TaskSupport_stackAlignment__C ==> .const:ti_sysbios_family_arm_m3_TaskSupport_stackAlignment__C
   "ble5_project_zero_cc2640r2lp_app.out" .const:ti_sysbios_heaps_HeapMem_E_memory__C ==> .const:ti_sysbios_heaps_HeapMem_E_memory__C
   "ble5_project_zero_cc2640r2lp_app.out" .const:ti_sysbios_heaps_HeapMem_Module__gateObj__C ==> .const:ti_sysbios_heaps_HeapMem_Module__gateObj__C
   "ble5_project_zero_cc2640r2lp_app.out" .const:ti_sysbios_heaps_HeapMem_Object__count__C ==> .const:ti_sysbios_heaps_HeapMem_Object__count__C
   "ble5_project_zero_cc2640r2lp_app.out" .const:ti_sysbios_heaps_HeapMem_Object__table__C ==> .const:ti_sysbios_heaps_HeapMem_Object__table__C
   "ble5_project_zero_cc2640r2lp_app.out" .const:ti_sysbios_heaps_HeapMem_reqAlign__C ==> .const:ti_sysbios_heaps_HeapMem_reqAlign__C
   "ble5_project_zero_cc2640r2lp_app.out" .const:ti_sysbios_knl_Clock_triggerClock__C ==> .const:ti_sysbios_knl_Clock_triggerClock__C
   "ble5_project_zero_cc2640r2lp_app.out" .const:ti_sysbios_knl_Mailbox_Object__count__C ==> .const:ti_sysbios_knl_Mailbox_Object__count__C
   "ble5_project_zero_cc2640r2lp_app.out" .const:ti_sysbios_knl_Mailbox_Object__table__C ==> .const:ti_sysbios_knl_Mailbox_Object__table__C
   "ble5_project_zero_cc2640r2lp_app.out" .const:ti_sysbios_knl_Mailbox_maxTypeAlign__C ==> .const:ti_sysbios_knl_Mailbox_maxTypeAlign__C
   "ble5_project_zero_cc2640r2lp_app.out" .const:ti_sysbios_knl_Queue_Object__count__C ==> .const:ti_sysbios_knl_Queue_Object__count__C
   "ble5_project_zero_cc2640r2lp_app.out" .const:ti_sysbios_knl_Queue_Object__table__C ==> .const:ti_sysbios_knl_Queue_Object__table__C
   "ble5_project_zero_cc2640r2lp_app.out" .const:ti_sysbios_knl_Semaphore_eventPost__C ==> .const:ti_sysbios_knl_Semaphore_eventPost__C
   "ble5_project_zero_cc2640r2lp_app.out" .const:ti_sysbios_knl_Semaphore_eventSync__C ==> .const:ti_sysbios_knl_Semaphore_eventSync__C
   "ble5_project_zero_cc2640r2lp_app.out" .const:ti_sysbios_knl_Swi_Object__count__C ==> .const:ti_sysbios_knl_Swi_Object__count__C
   "ble5_project_zero_cc2640r2lp_app.out" .const:ti_sysbios_knl_Swi_Object__table__C ==> .const:ti_sysbios_knl_Swi_Object__table__C
   "ble5_project_zero_cc2640r2lp_app.out" .const:ti_sysbios_knl_Swi_numPriorities__C ==> .const:ti_sysbios_knl_Swi_numPriorities__C
   "ble5_project_zero_cc2640r2lp_app.out" .const:ti_sysbios_knl_Task_Object__count__C ==> .const:ti_sysbios_knl_Task_Object__count__C
   "ble5_project_zero_cc2640r2lp_app.out" .const:ti_sysbios_knl_Task_Object__table__C ==> .const:ti_sysbios_knl_Task_Object__table__C
   "ble5_project_zero_cc2640r2lp_app.out" .const:ti_sysbios_knl_Task_allBlockedFunc__C ==> .const:ti_sysbios_knl_Task_allBlockedFunc__C
   "ble5_project_zero_cc2640r2lp_app.out" .const:ti_sysbios_knl_Task_defaultStackHeap__C ==> .const:ti_sysbios_knl_Task_defaultStackHeap__C
   "ble5_project_zero_cc2640r2lp_app.out" .const:ti_sysbios_knl_Task_defaultStackSize__C ==> .const:ti_sysbios_knl_Task_defaultStackSize__C
   "ble5_project_zero_cc2640r2lp_app.out" .const:ti_sysbios_knl_Task_numConstructedTasks__C ==> .const:ti_sysbios_knl_Task_numConstructedTasks__C
   "ble5_project_zero_cc2640r2lp_app.out" .const:ti_sysbios_family_arm_cc26xx_Timer_Module__id__C ==> .const:ti_sysbios_family_arm_cc26xx_Timer_Module__id__C
   "ble5_project_zero_cc2640r2lp_app.out" .const:ti_sysbios_family_arm_cc26xx_TimestampProvider_useClockTimer__C ==> .const:ti_sysbios_family_arm_cc26xx_TimestampProvider_useClockTimer__C
   "ble5_project_zero_cc2640r2lp_app.out" .const:ti_sysbios_family_arm_m3_Hwi_Module__id__C ==> .const:ti_sysbios_family_arm_m3_Hwi_Module__id__C
   "ble5_project_zero_cc2640r2lp_app.out" .const:ti_sysbios_gates_GateHwi_Module__id__C ==> .const:ti_sysbios_gates_GateHwi_Module__id__C
   "ble5_project_zero_cc2640r2lp_app.out" .const:ti_sysbios_gates_GateMutex_Module__id__C ==> .const:ti_sysbios_gates_GateMutex_Module__id__C
   "ble5_project_zero_cc2640r2lp_app.out" .const:ti_sysbios_heaps_HeapMem_Module__id__C ==> .const:ti_sysbios_heaps_HeapMem_Module__id__C
   "ble5_project_zero_cc2640r2lp_app.out" .const:ti_sysbios_knl_Task_initStackFlag__C ==> .const:ti_sysbios_knl_Task_initStackFlag__C
   "ble5_project_zero_cc2640r2lp_app.out" .const:ti_sysbios_knl_Clock_tickMode__C ==> .const:ti_sysbios_knl_Clock_tickMode__C
   "ble5_project_zero_cc2640r2lp_app.out" .const:xdc_runtime_Startup_firstFxns__C ==> .const:xdc_runtime_Startup_firstFxns__C
   "ble5_project_zero_cc2640r2lp_app.out" .const:xdc_runtime_Startup_lastFxns__C ==> .const:xdc_runtime_Startup_lastFxns__C
   "ble5_project_zero_cc2640r2lp_app.out" .const:xdc_runtime_Assert_E_assertFailed__C ==> .const:xdc_runtime_Assert_E_assertFailed__C
   "ble5_project_zero_cc2640r2lp_app.out" .const:xdc_runtime_Error_E_memory__C ==> .const:xdc_runtime_Error_E_memory__C
   "ble5_project_zero_cc2640r2lp_app.out" .const:xdc_runtime_Error_policyFxn__C ==> .const:xdc_runtime_Error_policyFxn__C
   "ble5_project_zero_cc2640r2lp_app.out" .const:xdc_runtime_Error_raiseHook__C ==> .const:xdc_runtime_Error_raiseHook__C
   "ble5_project_zero_cc2640r2lp_app.out" .const:xdc_runtime_IGateProvider_Interface__BASE__C ==> .const:xdc_runtime_IGateProvider_Interface__BASE__C
   "ble5_project_zero_cc2640r2lp_app.out" .const:xdc_runtime_IHeap_Interface__BASE__C ==> .const:xdc_runtime_IHeap_Interface__BASE__C
   "ble5_project_zero_cc2640r2lp_app.out" .const:xdc_runtime_IModule_Interface__BASE__C ==> .const:xdc_runtime_IModule_Interface__BASE__C
   "ble5_project_zero_cc2640r2lp_app.out" .const:xdc_runtime_Memory_defaultHeapInstance__C ==> .const:xdc_runtime_Memory_defaultHeapInstance__C
   "ble5_project_zero_cc2640r2lp_app.out" .const:xdc_runtime_Startup_execImpl__C ==> .const:xdc_runtime_Startup_execImpl__C
   "ble5_project_zero_cc2640r2lp_app.out" .const:xdc_runtime_Startup_maxPasses__C ==> .const:xdc_runtime_Startup_maxPasses__C
   "ble5_project_zero_cc2640r2lp_app.out" .const:xdc_runtime_Startup_sfxnRts__C ==> .const:xdc_runtime_Startup_sfxnRts__C
   "ble5_project_zero_cc2640r2lp_app.out" .const:xdc_runtime_Startup_sfxnTab__C ==> .const:xdc_runtime_Startup_sfxnTab__C
   "ble5_project_zero_cc2640r2lp_app.out" .const:xdc_runtime_Startup_startModsFxn__C ==> .const:xdc_runtime_Startup_startModsFxn__C
   "ble5_project_zero_cc2640r2lp_app.out" .const:xdc_runtime_SysCallback_abortFxn__C ==> .const:xdc_runtime_SysCallback_abortFxn__C
   "ble5_project_zero_cc2640r2lp_app.out" .const:xdc_runtime_SysCallback_exitFxn__C ==> .const:xdc_runtime_SysCallback_exitFxn__C
   "ble5_project_zero_cc2640r2lp_app.out" .const:xdc_runtime_System_abortFxn__C ==> .const:xdc_runtime_System_abortFxn__C
   "ble5_project_zero_cc2640r2lp_app.out" .const:xdc_runtime_System_exitFxn__C ==> .const:xdc_runtime_System_exitFxn__C
   "ble5_project_zero_cc2640r2lp_app.out" .const:xdc_runtime_System_maxAtexitHandlers__C ==> .const:xdc_runtime_System_maxAtexitHandlers__C
   "ble5_project_zero_cc2640r2lp_app.out" .const:xdc_runtime_Text_charTab__C ==> .const:xdc_runtime_Text_charTab__C
   "ble5_project_zero_cc2640r2lp_app.out" .const:xdc_runtime_Text_nameEmpty__C ==> .const:xdc_runtime_Text_nameEmpty__C
   "ble5_project_zero_cc2640r2lp_app.out" .const:xdc_runtime_Text_nameStatic__C ==> .const:xdc_runtime_Text_nameStatic__C
   "ble5_project_zero_cc2640r2lp_app.out" .const:xdc_runtime_Text_nameUnknown__C ==> .const:xdc_runtime_Text_nameUnknown__C
   "ble5_project_zero_cc2640r2lp_app.out" .const:xdc_runtime_Error_maxDepth__C ==> .const:xdc_runtime_Error_maxDepth__C
   "ble5_project_zero_cc2640r2lp_app.out" .const:xdc_runtime_Memory_Module__id__C ==> .const:xdc_runtime_Memory_Module__id__C
   "ble5_project_zero_cc2640r2lp_app.out" .const:xdc_runtime_Text_charCnt__C ==> .const:xdc_runtime_Text_charCnt__C
   "ble5_project_zero_cc2640r2lp_app.out" .const:xdc_runtime_Text_isLoaded__C ==> .const:xdc_runtime_Text_isLoaded__C
   "ble5_project_zero_cc2640r2lp_app.out" .const:xdc_runtime_Error_policy__C ==> .const:xdc_runtime_Error_policy__C
   "ble5_project_zero_cc2640r2lp_app.out" .const:ti_sysbios_rom_ROM_ti_sysbios_family_arm_cc26xx_Timer_getCount64__E ==> .const:ti_sysbios_rom_ROM_ti_sysbios_family_arm_cc26xx_Timer_getCount64__E
   "ble5_project_zero_cc2640r2lp_app.out" .const:ti_sysbios_rom_ROM_ti_sysbios_family_arm_cc26xx_Timer_getCurrentTick__E ==> .const:ti_sysbios_rom_ROM_ti_sysbios_family_arm_cc26xx_Timer_getCurrentTick__E
   "ble5_project_zero_cc2640r2lp_app.out" .const:ti_sysbios_rom_ROM_ti_sysbios_family_arm_cc26xx_Timer_getMaxTicks__E ==> .const:ti_sysbios_rom_ROM_ti_sysbios_family_arm_cc26xx_Timer_getMaxTicks__E
   "ble5_project_zero_cc2640r2lp_app.out" .const:ti_sysbios_rom_ROM_ti_sysbios_family_arm_cc26xx_Timer_initDevice__I ==> .const:ti_sysbios_rom_ROM_ti_sysbios_family_arm_cc26xx_Timer_initDevice__I
   "ble5_project_zero_cc2640r2lp_app.out" .const:ti_sysbios_rom_ROM_ti_sysbios_family_arm_cc26xx_Timer_setNextTick__E ==> .const:ti_sysbios_rom_ROM_ti_sysbios_family_arm_cc26xx_Timer_setNextTick__E
   "ble5_project_zero_cc2640r2lp_app.out" .const:ti_sysbios_rom_ROM_ti_sysbios_family_arm_cc26xx_Timer_setThreshold__I ==> .const:ti_sysbios_rom_ROM_ti_sysbios_family_arm_cc26xx_Timer_setThreshold__I
   "ble5_project_zero_cc2640r2lp_app.out" .const:ti_sysbios_rom_ROM_ti_sysbios_family_arm_cc26xx_Timer_start__E ==> .const:ti_sysbios_rom_ROM_ti_sysbios_family_arm_cc26xx_Timer_start__E
   "ble5_project_zero_cc2640r2lp_app.out" .const:ti_sysbios_rom_ROM_ti_sysbios_family_arm_cc26xx_TimestampProvider_get32__E ==> .const:ti_sysbios_rom_ROM_ti_sysbios_family_arm_cc26xx_TimestampProvider_get32__E
   "ble5_project_zero_cc2640r2lp_app.out" .const:ti_sysbios_rom_ROM_xdc_runtime_Startup_getState__I ==> .const:ti_sysbios_rom_ROM_xdc_runtime_Startup_getState__I
   "ble5_project_zero_cc2640r2lp_app.out" .const:ti_sysbios_rom_ROM_xdc_runtime_System_SupportProxy_abort__E ==> .const:ti_sysbios_rom_ROM_xdc_runtime_System_SupportProxy_abort__E
   "ble5_project_zero_cc2640r2lp_app.out" .const:ti_sysbios_rom_ROM_xdc_runtime_System_SupportProxy_exit__E ==> .const:ti_sysbios_rom_ROM_xdc_runtime_System_SupportProxy_exit__E
   "ble5_project_zero_cc2640r2lp_app.out" .text.2 ==> .text.2
   "ble5_project_zero_cc2640r2lp_app.out" .const ==> .const
   "ble5_project_zero_cc2640r2lp_app.out" .rodata ==> .rodata
   "ble5_project_zero_cc2640r2lp_app.out" .TI.bound:NV_FLASH ==> .TI.bound:NV_FLASH
   "ble5_project_zero_cc2640r2lp_app.out" .cinit ==> .cinit
   "ble5_project_zero_cc2640r2lp_app.out" .ccfg ==> .ccfg
 

**** Build Finished ****
